Firmware/mod2_dac/out.vcd
$date
	Fri Apr 30 12:43:07 2021
$end
$version
	Icarus Verilog
$end
$timescale
	1ps
$end
$scope module mod2_dac_tb $end
$scope module DUT $end
$var wire 1 ! i_clk $end
$var wire 16 " i_data [15:0] $end
$var wire 1 # i_en $end
$var wire 1 $ i_rst $end
$var wire 20 % y2 [19:0] $end
$var wire 20 & y1 [19:0] $end
$var wire 1 ' o_sd $end
$var wire 19 ( i_data_ext [18:0] $end
$var wire 19 ) e2 [18:0] $end
$var wire 19 * e1 [18:0] $end
$scope module int1 $end
$var wire 1 ! i_clk $end
$var wire 1 # i_en $end
$var wire 1 $ i_rst $end
$var wire 19 + i_x [18:0] $end
$var wire 20 , x_int [19:0] $end
$var wire 20 - o_y [19:0] $end
$var wire 20 . i_x_ext [19:0] $end
$scope module zinv $end
$var wire 1 ! i_clk $end
$var wire 20 / i_d [19:0] $end
$var wire 1 $ i_rst $end
$var wire 20 0 o_q [19:0] $end
$var reg 20 1 q [19:0] $end
$upscope $end
$upscope $end
$scope module int2 $end
$var wire 1 ! i_clk $end
$var wire 1 # i_en $end
$var wire 1 $ i_rst $end
$var wire 19 2 i_x [18:0] $end
$var wire 20 3 x_int [19:0] $end
$var wire 20 4 o_y [19:0] $end
$var wire 20 5 i_x_ext [19:0] $end
$scope module zinv $end
$var wire 1 ! i_clk $end
$var wire 20 6 i_d [19:0] $end
$var wire 1 $ i_rst $end
$var wire 20 7 o_q [19:0] $end
$var reg 20 8 q [19:0] $end
$upscope $end
$upscope $end
$upscope $end
$upscope $end
$scope module mod2_dac_tb $end
$scope module ref $end
$var wire 1 # i_ce $end
$var wire 1 ! i_clk $end
$var wire 16 9 i_func [15:0] $end
$var wire 1 : i_res $end
$var wire 1 ; o_DAC $end
$var reg 20 < DAC_acc_1st [19:0] $end
$var reg 20 = DAC_acc_2nd [19:0] $end
$var reg 20 > i_func_extended [19:0] $end
$var reg 1 ? this_bit $end
$upscope $end
$upscope $end
$enddefinitions $end
#0
$dumpvars
0?
b0 >
b0 =
b0 <
0;
0:
b0 9
b0 8
b0 7
b10000000000000000 6
b10000000000000000 5
b0 4
b10000000000000000 3
b10000000000000000 2
b0 1
b0 0
b1000000000000000 /
b1000000000000000 .
b0 -
b1000000000000000 ,
b1000000000000000 +
b1000000000000000 *
b10000000000000000 )
b0 (
0'
b0 &
b0 %
1$
1#
b0 "
0!
$end
#10000
1!
#20000
0!
#30000
1!
#40000
b11111000000000000000 ,
b11111000000000000000 /
b11110000000000000000 3
b11110000000000000000 6
b11111000000000000000 .
b1111000000000000000 *
b1111000000000000000 +
b11110000000000000000 5
b1110000000000000000 )
b1110000000000000000 2
1'
1:
0!
0$
#50000
b1000000000000000 .
b1000000000000000 *
b1000000000000000 +
b1100000000000000 5
b1100000000000000 )
b1100000000000000 2
0'
b0 ,
b0 /
b11111100000000000000 3
b11111100000000000000 6
b11111000000000000000 &
b11111000000000000000 -
b11111000000000000000 0
b11111000000000000000 1
b11110000000000000000 %
b11110000000000000000 4
b11110000000000000000 7
b11110000000000000000 8
1;
1?
b10000000000000000 =
b1000000000000000 <
1!
#60000
0!
#70000
b10000000000000000 5
b10000000000000000 )
b10000000000000000 2
b1100000000000000 3
b1100000000000000 6
b1000000000000000 ,
b1000000000000000 /
b11111100000000000000 %
b11111100000000000000 4
b11111100000000000000 7
b11111100000000000000 8
b0 &
b0 -
b0 0
b0 1
b1000000000000000 =
b0 <
1!
#80000
0!
#90000
b11111000000000000000 .
b1111000000000000000 *
b1111000000000000000 +
b11110100000000000000 5
b1110100000000000000 )
b1110100000000000000 2
1'
b0 ,
b0 /
b0 3
b0 6
b1000000000000000 &
b1000000000000000 -
b1000000000000000 0
b1000000000000000 1
b1100000000000000 %
b1100000000000000 4
b1100000000000000 7
b1100000000000000 8
0;
0?
b11111000000000000000 =
b11111000000000000000 <
1!
#100000
0!
#110000
b11110000000000000000 5
b1110000000000000000 )
b1110000000000000000 2
b11110000000000000000 3
b11110000000000000000 6
b11111000000000000000 ,
b11111000000000000000 /
b0 %
b0 4
b0 7
b0 8
b0 &
b0 -
b0 0
b0 1
1;
1?
b0 =
b0 <
1!
#120000
0!
#130000
b1000000000000000 .
b1000000000000000 *
b1000000000000000 +
b1100000000000000 5
b1100000000000000 )
b1100000000000000 2
0'
b0 ,
b0 /
b11111100000000000000 3
b11111100000000000000 6
b11111000000000000000 &
b11111000000000000000 -
b11111000000000000000 0
b11111000000000000000 1
b11110000000000000000 %
b11110000000000000000 4
b11110000000000000000 7
b11110000000000000000 8
0;
0?
b11110000000000000000 =
b11111000000000000000 <
1!
#140000
0!
#150000
b10000000000000000 5
b10000000000000000 )
b10000000000000000 2
b1100000000000000 3
b1100000000000000 6
b1000000000000000 ,
b1000000000000000 /
b11111100000000000000 %
b11111100000000000000 4
b11111100000000000000 7
b11111100000000000000 8
b0 &
b0 -
b0 0
b0 1
b11111000000000000000 =
b0 <
1!
#160000
0!
#170000
b11111000000000000000 .
b1111000000000000000 *
b1111000000000000000 +
b11110100000000000000 5
b1110100000000000000 )
b1110100000000000000 2
1'
b0 ,
b0 /
b0 3
b0 6
b1000000000000000 &
b1000000000000000 -
b1000000000000000 0
b1000000000000000 1
b1100000000000000 %
b1100000000000000 4
b1100000000000000 7
b1100000000000000 8
1;
1?
b1000000000000000 =
b1000000000000000 <
1!
#180000
0!
#190000
b11110000000000000000 5
b1110000000000000000 )
b1110000000000000000 2
b11110000000000000000 3
b11110000000000000000 6
b11111000000000000000 ,
b11111000000000000000 /
b0 %
b0 4
b0 7
b0 8
b0 &
b0 -
b0 0
b0 1
b0 =
b0 <
1!
#200000
0!
#210000
b1000000000000000 .
b1000000000000000 *
b1000000000000000 +
b1100000000000000 5
b1100000000000000 )
b1100000000000000 2
0'
b0 ,
b0 /
b11111100000000000000 3
b11111100000000000000 6
b11111000000000000000 &
b11111000000000000000 -
b11111000000000000000 0
b11111000000000000000 1
b11110000000000000000 %
b11110000000000000000 4
b11110000000000000000 7
b11110000000000000000 8
0;
0?
b11110000000000000000 =
b11111000000000000000 <
1!
#220000
0!
#230000
b10000000000000000 5
b10000000000000000 )
b10000000000000000 2
b1100000000000000 3
b1100000000000000 6
b1000000000000000 ,
b1000000000000000 /
b11111100000000000000 %
b11111100000000000000 4
b11111100000000000000 7
b11111100000000000000 8
b0 &
b0 -
b0 0
b0 1
b11111000000000000000 =
b0 <
1!
#240000
0!
#250000
b11111000000000000000 .
b1111000000000000000 *
b1111000000000000000 +
b11110100000000000000 5
b1110100000000000000 )
b1110100000000000000 2
1'
b0 ,
b0 /
b0 3
b0 6
b1000000000000000 &
b1000000000000000 -
b1000000000000000 0
b1000000000000000 1
b1100000000000000 %
b1100000000000000 4
b1100000000000000 7
b1100000000000000 8
1;
1?
b1000000000000000 =
b1000000000000000 <
1!
#260000
0!
#270000
b11110000000000000000 5
b1110000000000000000 )
b1110000000000000000 2
b11110000000000000000 3
b11110000000000000000 6
b11111000000000000000 ,
b11111000000000000000 /
b0 %
b0 4
b0 7
b0 8
b0 &
b0 -
b0 0
b0 1
b0 =
b0 <
1!
#280000
0!
#290000
b1000000000000000 .
b1000000000000000 *
b1000000000000000 +
b1100000000000000 5
b1100000000000000 )
b1100000000000000 2
0'
b0 ,
b0 /
b11111100000000000000 3
b11111100000000000000 6
b11111000000000000000 &
b11111000000000000000 -
b11111000000000000000 0
b11111000000000000000 1
b11110000000000000000 %
b11110000000000000000 4
b11110000000000000000 7
b11110000000000000000 8
0;
0?
b11110000000000000000 =
b11111000000000000000 <
1!
#300000
0!
#310000
b10000000000000000 5
b10000000000000000 )
b10000000000000000 2
b1100000000000000 3
b1100000000000000 6
b1000000000000000 ,
b1000000000000000 /
b11111100000000000000 %
b11111100000000000000 4
b11111100000000000000 7
b11111100000000000000 8
b0 &
b0 -
b0 0
b0 1
b11111000000000000000 =
b0 <
1!
#320000
0!
#330000
b11111000000000000000 .
b1111000000000000000 *
b1111000000000000000 +
b11110100000000000000 5
b1110100000000000000 )
b1110100000000000000 2
1'
b0 ,
b0 /
b0 3
b0 6
b1000000000000000 &
b1000000000000000 -
b1000000000000000 0
b1000000000000000 1
b1100000000000000 %
b1100000000000000 4
b1100000000000000 7
b1100000000000000 8
1;
1?
b1000000000000000 =
b1000000000000000 <
1!
#340000
0!
#350000
b11110000000000000000 5
b1110000000000000000 )
b1110000000000000000 2
b11110000000000000000 3
b11110000000000000000 6
b11111000000000000000 ,
b11111000000000000000 /
b0 %
b0 4
b0 7
b0 8
b0 &
b0 -
b0 0
b0 1
b0 =
b0 <
1!
#360000
0!
#370000
b1000000000000000 .
b1000000000000000 *
b1000000000000000 +
b1100000000000000 5
b1100000000000000 )
b1100000000000000 2
0'
b0 ,
b0 /
b11111100000000000000 3
b11111100000000000000 6
b11111000000000000000 &
b11111000000000000000 -
b11111000000000000000 0
b11111000000000000000 1
b11110000000000000000 %
b11110000000000000000 4
b11110000000000000000 7
b11110000000000000000 8
0;
0?
b11110000000000000000 =
b11111000000000000000 <
1!
#380000
0!
#390000
b10000000000000000 5
b10000000000000000 )
b10000000000000000 2
b1100000000000000 3
b1100000000000000 6
b1000000000000000 ,
b1000000000000000 /
b11111100000000000000 %
b11111100000000000000 4
b11111100000000000000 7
b11111100000000000000 8
b0 &
b0 -
b0 0
b0 1
b11111000000000000000 =
b0 <
1!
#400000
0!
#410000
b11111000000000000000 .
b1111000000000000000 *
b1111000000000000000 +
b11110100000000000000 5
b1110100000000000000 )
b1110100000000000000 2
1'
b0 ,
b0 /
b0 3
b0 6
b1000000000000000 &
b1000000000000000 -
b1000000000000000 0
b1000000000000000 1
b1100000000000000 %
b1100000000000000 4
b1100000000000000 7
b1100000000000000 8
1;
1?
b1000000000000000 =
b1000000000000000 <
1!
#420000
0!
#430000
b11110000000000000000 5
b1110000000000000000 )
b1110000000000000000 2
b11110000000000000000 3
b11110000000000000000 6
b11111000000000000000 ,
b11111000000000000000 /
b0 %
b0 4
b0 7
b0 8
b0 &
b0 -
b0 0
b0 1
b0 =
b0 <
1!
#440000
b11111000000000001000 ,
b11111000000000001000 /
b11111000000000001000 .
b1111000000000001000 *
b1111000000000001000 +
b1000 >
0!
b1000 (
b1000 "
b1000 9
#450000
b1000000000001000 .
b1000000000001000 *
b1000000000001000 +
b1100000000000100 5
b1100000000000100 )
b1100000000000100 2
0'
b10000 ,
b10000 /
b11111100000000000100 3
b11111100000000000100 6
b11111000000000001000 &
b11111000000000001000 -
b11111000000000001000 0
b11111000000000001000 1
b11110000000000000000 %
b11110000000000000000 4
b11110000000000000000 7
b11110000000000000000 8
0;
0?
b11110000000000001000 =
b11111000000000001000 <
1!
#460000
0!
#470000
b10000000000001000 5
b10000000000001000 )
b10000000000001000 2
b1100000000001100 3
b1100000000001100 6
b1000000000011000 ,
b1000000000011000 /
b11111100000000000100 %
b11111100000000000100 4
b11111100000000000100 7
b11111100000000000100 8
b10000 &
b10000 -
b10000 0
b10000 1
b11111000000000011000 =
b10000 <
1!
#480000
0!
#490000
b11111000000000001000 .
b1111000000000001000 *
b1111000000000001000 +
b11110100000000001100 5
b1110100000000001100 )
b1110100000000001100 2
1'
b100000 ,
b100000 /
b11000 3
b11000 6
b1000000000011000 &
b1000000000011000 -
b1000000000011000 0
b1000000000011000 1
b1100000000001100 %
b1100000000001100 4
b1100000000001100 7
b1100000000001100 8
1;
1?
b1000000000110000 =
b1000000000011000 <
1!
#500000
0!
#510000
b11110000000000010000 5
b1110000000000010000 )
b1110000000000010000 2
b11110000000000101000 3
b11110000000000101000 6
b11111000000000101000 ,
b11111000000000101000 /
b11000 %
b11000 4
b11000 7
b11000 8
b100000 &
b100000 -
b100000 0
b100000 1
b1010000 =
b100000 <
1!
#520000
0!
#530000
b1000000000001000 .
b1000000000001000 *
b1000000000001000 +
b1100000000010100 5
b1100000000010100 )
b1100000000010100 2
0'
b110000 ,
b110000 /
b11111100000000111100 3
b11111100000000111100 6
b11111000000000101000 &
b11111000000000101000 -
b11111000000000101000 0
b11111000000000101000 1
b11110000000000101000 %
b11110000000000101000 4
b11110000000000101000 7
b11110000000000101000 8
0;
0?
b11110000000001111000 =
b11111000000000101000 <
1!
#540000
0!
#550000
b10000000000011000 5
b10000000000011000 )
b10000000000011000 2
b1100000001010100 3
b1100000001010100 6
b1000000000111000 ,
b1000000000111000 /
b11111100000000111100 %
b11111100000000111100 4
b11111100000000111100 7
b11111100000000111100 8
b110000 &
b110000 -
b110000 0
b110000 1
b11111000000010101000 =
b110000 <
1!
#560000
0!
#570000
b11111000000000001000 .
b1111000000000001000 *
b1111000000000001000 +
b11110100000000011100 5
b1110100000000011100 )
b1110100000000011100 2
1'
b1000000 ,
b1000000 /
b1110000 3
b1110000 6
b1000000000111000 &
b1000000000111000 -
b1000000000111000 0
b1000000000111000 1
b1100000001010100 %
b1100000001010100 4
b1100000001010100 7
b1100000001010100 8
1;
1?
b1000000011100000 =
b1000000000111000 <
1!
#580000
0!
#590000
b11110000000000100000 5
b1110000000000100000 )
b1110000000000100000 2
b11110000000010010000 3
b11110000000010010000 6
b11111000000001001000 ,
b11111000000001001000 /
b1110000 %
b1110000 4
b1110000 7
b1110000 8
b1000000 &
b1000000 -
b1000000 0
b1000000 1
b100100000 =
b1000000 <
1!
#600000
0!
#610000
b1000000000001000 .
b1000000000001000 *
b1000000000001000 +
b1100000000100100 5
b1100000000100100 )
b1100000000100100 2
0'
b1010000 ,
b1010000 /
b11111100000010110100 3
b11111100000010110100 6
b11111000000001001000 &
b11111000000001001000 -
b11111000000001001000 0
b11111000000001001000 1
b11110000000010010000 %
b11110000000010010000 4
b11110000000010010000 7
b11110000000010010000 8
0;
0?
b11110000000101101000 =
b11111000000001001000 <
1!
#620000
0!
#630000
b10000000000101000 5
b10000000000101000 )
b10000000000101000 2
b1100000011011100 3
b1100000011011100 6
b1000000001011000 ,
b1000000001011000 /
b11111100000010110100 %
b11111100000010110100 4
b11111100000010110100 7
b11111100000010110100 8
b1010000 &
b1010000 -
b1010000 0
b1010000 1
b11111000000110111000 =
b1010000 <
1!
#640000
0!
#650000
b11111000000000001000 .
b1111000000000001000 *
b1111000000000001000 +
b11110100000000101100 5
b1110100000000101100 )
b1110100000000101100 2
1'
b1100000 ,
b1100000 /
b100001000 3
b100001000 6
b1000000001011000 &
b1000000001011000 -
b1000000001011000 0
b1000000001011000 1
b1100000011011100 %
b1100000011011100 4
b1100000011011100 7
b1100000011011100 8
1;
1?
b1000001000010000 =
b1000000001011000 <
1!
#660000
0!
#670000
b11110000000000110000 5
b1110000000000110000 )
b1110000000000110000 2
b11110000000100111000 3
b11110000000100111000 6
b11111000000001101000 ,
b11111000000001101000 /
b100001000 %
b100001000 4
b100001000 7
b100001000 8
b1100000 &
b1100000 -
b1100000 0
b1100000 1
b1001110000 =
b1100000 <
1!
#680000
0!
#690000
b1000000000001000 .
b1000000000001000 *
b1000000000001000 +
b1100000000110100 5
b1100000000110100 )
b1100000000110100 2
0'
b1110000 ,
b1110000 /
b11111100000101101100 3
b11111100000101101100 6
b11111000000001101000 &
b11111000000001101000 -
b11111000000001101000 0
b11111000000001101000 1
b11110000000100111000 %
b11110000000100111000 4
b11110000000100111000 7
b11110000000100111000 8
0;
0?
b11110000001011011000 =
b11111000000001101000 <
1!
#700000
0!
#710000
b10000000000111000 5
b10000000000111000 )
b10000000000111000 2
b1100000110100100 3
b1100000110100100 6
b1000000001111000 ,
b1000000001111000 /
b11111100000101101100 %
b11111100000101101100 4
b11111100000101101100 7
b11111100000101101100 8
b1110000 &
b1110000 -
b1110000 0
b1110000 1
b11111000001101001000 =
b1110000 <
1!
#720000
0!
#730000
b11111000000000001000 .
b1111000000000001000 *
b1111000000000001000 +
b11110100000000111100 5
b1110100000000111100 )
b1110100000000111100 2
1'
b10000000 ,
b10000000 /
b111100000 3
b111100000 6
b1000000001111000 &
b1000000001111000 -
b1000000001111000 0
b1000000001111000 1
b1100000110100100 %
b1100000110100100 4
b1100000110100100 7
b1100000110100100 8
1;
1?
b1000001111000000 =
b1000000001111000 <
1!
#740000
0!
#750000
b11110000000001000000 5
b1110000000001000000 )
b1110000000001000000 2
b11110000001000100000 3
b11110000001000100000 6
b11111000000010001000 ,
b11111000000010001000 /
b111100000 %
b111100000 4
b111100000 7
b111100000 8
b10000000 &
b10000000 -
b10000000 0
b10000000 1
b10001000000 =
b10000000 <
1!
#760000
0!
#770000
b1000000000001000 .
b1000000000001000 *
b1000000000001000 +
b1100000001000100 5
b1100000001000100 )
b1100000001000100 2
0'
b10010000 ,
b10010000 /
b11111100001001100100 3
b11111100001001100100 6
b11111000000010001000 &
b11111000000010001000 -
b11111000000010001000 0
b11111000000010001000 1
b11110000001000100000 %
b11110000001000100000 4
b11110000001000100000 7
b11110000001000100000 8
0;
0?
b11110000010011001000 =
b11111000000010001000 <
1!
#780000
0!
#790000
b10000000001001000 5
b10000000001001000 )
b10000000001001000 2
b1100001010101100 3
b1100001010101100 6
b1000000010011000 ,
b1000000010011000 /
b11111100001001100100 %
b11111100001001100100 4
b11111100001001100100 7
b11111100001001100100 8
b10010000 &
b10010000 -
b10010000 0
b10010000 1
b11111000010101011000 =
b10010000 <
1!
#800000
0!
#810000
b11111000000000001000 .
b1111000000000001000 *
b1111000000000001000 +
b11110100000001001100 5
b1110100000001001100 )
b1110100000001001100 2
1'
b10100000 ,
b10100000 /
b1011111000 3
b1011111000 6
b1000000010011000 &
b1000000010011000 -
b1000000010011000 0
b1000000010011000 1
b1100001010101100 %
b1100001010101100 4
b1100001010101100 7
b1100001010101100 8
1;
1?
b1000010111110000 =
b1000000010011000 <
1!
#820000
0!
#830000
b11110000000001010000 5
b1110000000001010000 )
b1110000000001010000 2
b11110000001101001000 3
b11110000001101001000 6
b11111000000010101000 ,
b11111000000010101000 /
b1011111000 %
b1011111000 4
b1011111000 7
b1011111000 8
b10100000 &
b10100000 -
b10100000 0
b10100000 1
b11010010000 =
b10100000 <
1!
#840000
b11111000000010110000 ,
b11111000000010110000 /
b11111000000000010000 .
b1111000000000010000 *
b1111000000000010000 +
b10000 >
0!
b10000 (
b10000 "
b10000 9
#850000
b1000000000010000 .
b1000000000010000 *
b1000000000010000 +
b1100000001011000 5
b1100000001011000 )
b1100000001011000 2
0'
b11000000 ,
b11000000 /
b11111100001110100000 3
b11111100001110100000 6
b11111000000010110000 &
b11111000000010110000 -
b11111000000010110000 0
b11111000000010110000 1
b11110000001101001000 %
b11110000001101001000 4
b11110000001101001000 7
b11110000001101001000 8
0;
0?
b11110000011101000000 =
b11111000000010110000 <
1!
#860000
0!
#870000
b10000000001100000 5
b10000000001100000 )
b10000000001100000 2
b1100010000000000 3
b1100010000000000 6
b1000000011010000 ,
b1000000011010000 /
b11111100001110100000 %
b11111100001110100000 4
b11111100001110100000 7
b11111100001110100000 8
b11000000 &
b11000000 -
b11000000 0
b11000000 1
b11111000100000000000 =
b11000000 <
1!
#880000
0!
#890000
b11111000000000010000 .
b1111000000000010000 *
b1111000000000010000 +
b11110100000001101000 5
b1110100000001101000 )
b1110100000001101000 2
1'
b11100000 ,
b11100000 /
b10001101000 3
b10001101000 6
b1000000011010000 &
b1000000011010000 -
b1000000011010000 0
b1000000011010000 1
b1100010000000000 %
b1100010000000000 4
b1100010000000000 7
b1100010000000000 8
1;
1?
b1000100011010000 =
b1000000011010000 <
1!
#900000
0!
#910000
b11110000000001110000 5
b1110000000001110000 )
b1110000000001110000 2
b11110000010011011000 3
b11110000010011011000 6
b11111000000011110000 ,
b11111000000011110000 /
b10001101000 %
b10001101000 4
b10001101000 7
b10001101000 8
b11100000 &
b11100000 -
b11100000 0
b11100000 1
b100110110000 =
b11100000 <
1!
#920000
0!
#930000
b1000000000010000 .
b1000000000010000 *
b1000000000010000 +
b1100000001111000 5
b1100000001111000 )
b1100000001111000 2
0'
b100000000 ,
b100000000 /
b11111100010101010000 3
b11111100010101010000 6
b11111000000011110000 &
b11111000000011110000 -
b11111000000011110000 0
b11111000000011110000 1
b11110000010011011000 %
b11110000010011011000 4
b11110000010011011000 7
b11110000010011011000 8
0;
0?
b11110000101010100000 =
b11111000000011110000 <
1!
#940000
0!
#950000
b10000000010000000 5
b10000000010000000 )
b10000000010000000 2
b1100010111010000 3
b1100010111010000 6
b1000000100010000 ,
b1000000100010000 /
b11111100010101010000 %
b11111100010101010000 4
b11111100010101010000 7
b11111100010101010000 8
b100000000 &
b100000000 -
b100000000 0
b100000000 1
b11111000101110100000 =
b100000000 <
1!
#960000
0!
#970000
b11111000000000010000 .
b1111000000000010000 *
b1111000000000010000 +
b11110100000010001000 5
b1110100000010001000 )
b1110100000010001000 2
1'
b100100000 ,
b100100000 /
b11001011000 3
b11001011000 6
b1000000100010000 &
b1000000100010000 -
b1000000100010000 0
b1000000100010000 1
b1100010111010000 %
b1100010111010000 4
b1100010111010000 7
b1100010111010000 8
1;
1?
b1000110010110000 =
b1000000100010000 <
1!
#980000
0!
#990000
b11110000000010010000 5
b1110000000010010000 )
b1110000000010010000 2
b11110000011011101000 3
b11110000011011101000 6
b11111000000100110000 ,
b11111000000100110000 /
b11001011000 %
b11001011000 4
b11001011000 7
b11001011000 8
b100100000 &
b100100000 -
b100100000 0
b100100000 1
b110111010000 =
b100100000 <
1!
#1000000
0!
#1010000
b1000000000010000 .
b1000000000010000 *
b1000000000010000 +
b1100000010011000 5
b1100000010011000 )
b1100000010011000 2
0'
b101000000 ,
b101000000 /
b11111100011110000000 3
b11111100011110000000 6
b11111000000100110000 &
b11111000000100110000 -
b11111000000100110000 0
b11111000000100110000 1
b11110000011011101000 %
b11110000011011101000 4
b11110000011011101000 7
b11110000011011101000 8
0;
0?
b11110000111100000000 =
b11111000000100110000 <
1!
#1020000
0!
#1030000
b10000000010100000 5
b10000000010100000 )
b10000000010100000 2
b1100100000100000 3
b1100100000100000 6
b1000000101010000 ,
b1000000101010000 /
b11111100011110000000 %
b11111100011110000000 4
b11111100011110000000 7
b11111100011110000000 8
b101000000 &
b101000000 -
b101000000 0
b101000000 1
b11111001000001000000 =
b101000000 <
1!
#1040000
0!
#1050000
b11111000000000010000 .
b1111000000000010000 *
b1111000000000010000 +
b11110100000010101000 5
b1110100000010101000 )
b1110100000010101000 2
1'
b101100000 ,
b101100000 /
b100011001000 3
b100011001000 6
b1000000101010000 &
b1000000101010000 -
b1000000101010000 0
b1000000101010000 1
b1100100000100000 %
b1100100000100000 4
b1100100000100000 7
b1100100000100000 8
1;
1?
b1001000110010000 =
b1000000101010000 <
1!
#1060000
0!
#1070000
b11110000000010110000 5
b1110000000010110000 )
b1110000000010110000 2
b11110000100101111000 3
b11110000100101111000 6
b11111000000101110000 ,
b11111000000101110000 /
b100011001000 %
b100011001000 4
b100011001000 7
b100011001000 8
b101100000 &
b101100000 -
b101100000 0
b101100000 1
b1001011110000 =
b101100000 <
1!
#1080000
0!
#1090000
b1000000000010000 .
b1000000000010000 *
b1000000000010000 +
b1100000010111000 5
b1100000010111000 )
b1100000010111000 2
0'
b110000000 ,
b110000000 /
b11111100101000110000 3
b11111100101000110000 6
b11111000000101110000 &
b11111000000101110000 -
b11111000000101110000 0
b11111000000101110000 1
b11110000100101111000 %
b11110000100101111000 4
b11110000100101111000 7
b11110000100101111000 8
0;
0?
b11110001010001100000 =
b11111000000101110000 <
1!
#1100000
0!
#1110000
b10000000011000000 5
b10000000011000000 )
b10000000011000000 2
b1100101011110000 3
b1100101011110000 6
b1000000110010000 ,
b1000000110010000 /
b11111100101000110000 %
b11111100101000110000 4
b11111100101000110000 7
b11111100101000110000 8
b110000000 &
b110000000 -
b110000000 0
b110000000 1
b11111001010111100000 =
b110000000 <
1!
#1120000
0!
#1130000
b11111000000000010000 .
b1111000000000010000 *
b1111000000000010000 +
b11110100000011001000 5
b1110100000011001000 )
b1110100000011001000 2
1'
b110100000 ,
b110100000 /
b101110111000 3
b101110111000 6
b1000000110010000 &
b1000000110010000 -
b1000000110010000 0
b1000000110010000 1
b1100101011110000 %
b1100101011110000 4
b1100101011110000 7
b1100101011110000 8
1;
1?
b1001011101110000 =
b1000000110010000 <
1!
#1140000
0!
#1150000
b11110000000011010000 5
b1110000000011010000 )
b1110000000011010000 2
b11110000110010001000 3
b11110000110010001000 6
b11111000000110110000 ,
b11111000000110110000 /
b101110111000 %
b101110111000 4
b101110111000 7
b101110111000 8
b110100000 &
b110100000 -
b110100000 0
b110100000 1
b1100100010000 =
b110100000 <
1!
#1160000
0!
#1170000
b1000000000010000 .
b1000000000010000 *
b1000000000010000 +
b1100000011011000 5
b1100000011011000 )
b1100000011011000 2
0'
b111000000 ,
b111000000 /
b11111100110101100000 3
b11111100110101100000 6
b11111000000110110000 &
b11111000000110110000 -
b11111000000110110000 0
b11111000000110110000 1
b11110000110010001000 %
b11110000110010001000 4
b11110000110010001000 7
b11110000110010001000 8
0;
0?
b11110001101011000000 =
b11111000000110110000 <
1!
#1180000
0!
#1190000
b10000000011100000 5
b10000000011100000 )
b10000000011100000 2
b1100111001000000 3
b1100111001000000 6
b1000000111010000 ,
b1000000111010000 /
b11111100110101100000 %
b11111100110101100000 4
b11111100110101100000 7
b11111100110101100000 8
b111000000 &
b111000000 -
b111000000 0
b111000000 1
b11111001110010000000 =
b111000000 <
1!
#1200000
0!
#1210000
b11111000000000010000 .
b1111000000000010000 *
b1111000000000010000 +
b11110100000011101000 5
b1110100000011101000 )
b1110100000011101000 2
1'
b111100000 ,
b111100000 /
b111100101000 3
b111100101000 6
b1000000111010000 &
b1000000111010000 -
b1000000111010000 0
b1000000111010000 1
b1100111001000000 %
b1100111001000000 4
b1100111001000000 7
b1100111001000000 8
1;
1?
b1001111001010000 =
b1000000111010000 <
1!
#1220000
0!
#1230000
b11110000000011110000 5
b1110000000011110000 )
b1110000000011110000 2
b11110001000000011000 3
b11110001000000011000 6
b11111000000111110000 ,
b11111000000111110000 /
b111100101000 %
b111100101000 4
b111100101000 7
b111100101000 8
b111100000 &
b111100000 -
b111100000 0
b111100000 1
b10000000110000 =
b111100000 <
1!
#1240000
b11111000001000000000 ,
b11111000001000000000 /
b11111000000000100000 .
b1111000000000100000 *
b1111000000000100000 +
b100000 >
0!
b100000 (
b100000 "
b100000 9
#1250000
b1000000000100000 .
b1000000000100000 *
b1000000000100000 +
b1100000100000000 5
b1100000100000000 )
b1100000100000000 2
0'
b1000100000 ,
b1000100000 /
b11111101000100011000 3
b11111101000100011000 6
b11111000001000000000 &
b11111000001000000000 -
b11111000001000000000 0
b11111000001000000000 1
b11110001000000011000 %
b11110001000000011000 4
b11110001000000011000 7
b11110001000000011000 8
0;
0?
b11110010001000110000 =
b11111000001000000000 <
1!
#1260000
0!
#1270000
b10000000100010000 5
b10000000100010000 )
b10000000100010000 2
b1101001000101000 3
b1101001000101000 6
b1000001001000000 ,
b1000001001000000 /
b11111101000100011000 %
b11111101000100011000 4
b11111101000100011000 7
b11111101000100011000 8
b1000100000 &
b1000100000 -
b1000100000 0
b1000100000 1
b11111010010001010000 =
b1000100000 <
1!
#1280000
0!
#1290000
b11111000000000100000 .
b1111000000000100000 *
b1111000000000100000 +
b11110100000100100000 5
b1110100000100100000 )
b1110100000100100000 2
1'
b1001100000 ,
b1001100000 /
b1001101001000 3
b1001101001000 6
b1000001001000000 &
b1000001001000000 -
b1000001001000000 0
b1000001001000000 1
b1101001000101000 %
b1101001000101000 4
b1101001000101000 7
b1101001000101000 8
1;
1?
b1010011010010000 =
b1000001001000000 <
1!
#1300000
0!
#1310000
b11110000000100110000 5
b1110000000100110000 )
b1110000000100110000 2
b11110001010001111000 3
b11110001010001111000 6
b11111000001010000000 ,
b11111000001010000000 /
b1001101001000 %
b1001101001000 4
b1001101001000 7
b1001101001000 8
b1001100000 &
b1001100000 -
b1001100000 0
b1001100000 1
b10100011110000 =
b1001100000 <
1!
#1320000
0!
#1330000
b1000000000100000 .
b1000000000100000 *
b1000000000100000 +
b1100000101000000 5
b1100000101000000 )
b1100000101000000 2
0'
b1010100000 ,
b1010100000 /
b11111101010110111000 3
b11111101010110111000 6
b11111000001010000000 &
b11111000001010000000 -
b11111000001010000000 0
b11111000001010000000 1
b11110001010001111000 %
b11110001010001111000 4
b11110001010001111000 7
b11110001010001111000 8
0;
0?
b11110010101101110000 =
b11111000001010000000 <
1!
#1340000
0!
#1350000
b10000000101010000 5
b10000000101010000 )
b10000000101010000 2
b1101011100001000 3
b1101011100001000 6
b1000001011000000 ,
b1000001011000000 /
b11111101010110111000 %
b11111101010110111000 4
b11111101010110111000 7
b11111101010110111000 8
b1010100000 &
b1010100000 -
b1010100000 0
b1010100000 1
b11111010111000010000 =
b1010100000 <
1!
#1360000
0!
#1370000
b11111000000000100000 .
b1111000000000100000 *
b1111000000000100000 +
b11110100000101100000 5
b1110100000101100000 )
b1110100000101100000 2
1'
b1011100000 ,
b1011100000 /
b1100001101000 3
b1100001101000 6
b1000001011000000 &
b1000001011000000 -
b1000001011000000 0
b1000001011000000 1
b1101011100001000 %
b1101011100001000 4
b1101011100001000 7
b1101011100001000 8
1;
1?
b1011000011010000 =
b1000001011000000 <
1!
#1380000
0!
#1390000
b11110000000101110000 5
b1110000000101110000 )
b1110000000101110000 2
b11110001100111011000 3
b11110001100111011000 6
b11111000001100000000 ,
b11111000001100000000 /
b1100001101000 %
b1100001101000 4
b1100001101000 7
b1100001101000 8
b1011100000 &
b1011100000 -
b1011100000 0
b1011100000 1
b11001110110000 =
b1011100000 <
1!
#1400000
0!
