Firmware/int/out.vcd
$date
	Wed Jul  8 13:59:06 2020
$end
$version
	Icarus Verilog
$end
$timescale
	1ns
$end
$scope module int_tb $end
$scope module DUT $end
$var wire 1 ! i_clk $end
$var wire 1 " i_en $end
$var wire 1 # i_rst $end
$var wire 8 $ i_x [7:0] $end
$var wire 9 % x_int [8:0] $end
$var wire 9 & o_y [8:0] $end
$var wire 9 ' i_x_ext [8:0] $end
$scope module zinv $end
$var wire 1 ! i_clk $end
$var wire 9 ( i_d [8:0] $end
$var wire 1 # i_rst $end
$var wire 9 ) o_q [8:0] $end
$var reg 9 * q [8:0] $end
$upscope $end
$upscope $end
$upscope $end
$enddefinitions $end
#0
$dumpvars
bx *
bx )
bx (
b1 '
bx &
bx %
b1 $
1#
1"
0!
$end
#10
b1 %
b1 (
b0 &
b0 )
b0 *
1!
#20
0!
#30
1!
#40
0!
#50
1!
#60
0!
0#
#70
b10 %
b10 (
b1 &
b1 )
b1 *
1!
#80
0!
#90
b11 %
b11 (
b10 &
b10 )
b10 *
1!
#100
0!
#110
b100 %
b100 (
b11 &
b11 )
b11 *
1!
#120
0!
#130
b101 %
b101 (
b100 &
b100 )
b100 *
1!
#140
0!
#150
b110 %
b110 (
b101 &
b101 )
b101 *
1!
#160
0!
#170
b111 %
b111 (
b110 &
b110 )
b110 *
1!
#180
0!
#190
b1000 %
b1000 (
b111 &
b111 )
b111 *
1!
#200
0!
#210
b1001 %
b1001 (
b1000 &
b1000 )
b1000 *
1!
#220
0!
#230
b1010 %
b1010 (
b1001 &
b1001 )
b1001 *
1!
#240
0!
#250
b1011 %
b1011 (
b1010 &
b1010 )
b1010 *
1!
#260
b1010 %
b1010 (
0!
b0 '
b0 $
#270
1!
#280
0!
#290
1!
#300
b11001 %
b11001 (
0!
b1111 '
b1111 $
#310
b101000 %
b101000 (
b11001 &
b11001 )
b11001 *
1!
#320
0!
#330
b110111 %
b110111 (
b101000 &
b101000 )
b101000 *
1!
#340
0!
#350
b1000110 %
b1000110 (
b110111 &
b110111 )
b110111 *
1!
#360
0!
#370
b1010101 %
b1010101 (
b1000110 &
b1000110 )
b1000110 *
1!
#380
0!
#390
b1100100 %
b1100100 (
b1010101 &
b1010101 )
b1010101 *
1!
#400
0!
#410
b1110011 %
b1110011 (
b1100100 &
b1100100 )
b1100100 *
1!
#420
0!
#430
b10000010 %
b10000010 (
b1110011 &
b1110011 )
b1110011 *
1!
#440
0!
#450
b10010001 %
b10010001 (
b10000010 &
b10000010 )
b10000010 *
1!
#460
0!
#470
b10100000 %
b10100000 (
b10010001 &
b10010001 )
b10010001 *
1!
#480
0!
#490
b10101111 %
b10101111 (
b10100000 &
b10100000 )
b10100000 *
1!
#500
0!
#510
b10111110 %
b10111110 (
b10101111 &
b10101111 )
b10101111 *
1!
#520
0!
#530
b11001101 %
b11001101 (
b10111110 &
b10111110 )
b10111110 *
1!
#540
0!
#550
b11011100 %
b11011100 (
b11001101 &
b11001101 )
b11001101 *
1!
#560
0!
#570
b11101011 %
b11101011 (
b11011100 &
b11011100 )
b11011100 *
1!
#580
0!
#590
b11111010 %
b11111010 (
b11101011 &
b11101011 )
b11101011 *
1!
#600
0!
#610
b100001001 %
b100001001 (
b11111010 &
b11111010 )
b11111010 *
1!
#620
0!
#630
b100011000 %
b100011000 (
b100001001 &
b100001001 )
b100001001 *
1!
#640
0!
#650
b100100111 %
b100100111 (
b100011000 &
b100011000 )
b100011000 *
1!
#660
0!
#670
b100110110 %
b100110110 (
b100100111 &
b100100111 )
b100100111 *
1!
#680
0!
#690
b101000101 %
b101000101 (
b100110110 &
b100110110 )
b100110110 *
1!
#700
0!
#710
b101010100 %
b101010100 (
b101000101 &
b101000101 )
b101000101 *
1!
#720
0!
#730
b101100011 %
b101100011 (
b101010100 &
b101010100 )
b101010100 *
1!
#740
0!
#750
b101110010 %
b101110010 (
b101100011 &
b101100011 )
b101100011 *
1!
#760
0!
#770
b110000001 %
b110000001 (
b101110010 &
b101110010 )
b101110010 *
1!
#780
0!
#790
b110010000 %
b110010000 (
b110000001 &
b110000001 )
b110000001 *
1!
#800
0!
#810
b110011111 %
b110011111 (
b110010000 &
b110010000 )
b110010000 *
1!
#820
0!
#830
b110101110 %
b110101110 (
b110011111 &
b110011111 )
b110011111 *
1!
#840
0!
#850
b110111101 %
b110111101 (
b110101110 &
b110101110 )
b110101110 *
1!
#860
0!
#870
b111001100 %
b111001100 (
b110111101 &
b110111101 )
b110111101 *
1!
#880
0!
#890
b111011011 %
b111011011 (
b111001100 &
b111001100 )
b111001100 *
1!
#900
0!
#910
b111101010 %
b111101010 (
b111011011 &
b111011011 )
b111011011 *
1!
#920
0!
#930
b111111001 %
b111111001 (
b111101010 &
b111101010 )
b111101010 *
1!
#940
0!
#950
b1000 %
b1000 (
b111111001 &
b111111001 )
b111111001 *
1!
#960
0!
#970
b10111 %
b10111 (
b1000 &
b1000 )
b1000 *
1!
#980
0!
#990
b100110 %
b100110 (
b10111 &
b10111 )
b10111 *
1!
