Firmware/min/out.vcd
$date
	Wed Mar 31 15:04:17 2021
$end
$version
	Icarus Verilog
$end
$timescale
	1ps
$end
$scope module min_transmit_fsm_tb $end
$scope module DUT $end
$var wire 1 ! i_clk $end
$var wire 16 " i_data [15:0] $end
$var wire 1 # i_en $end
$var wire 8 $ i_id [7:0] $end
$var wire 1 % i_rst $end
$var wire 32 & crc [31:0] $end
$var wire 4 ' body_cnt [3:0] $end
$var reg 1 ( body_counter_en $end
$var reg 1 ) body_counter_rst $end
$var reg 1 * cnt_en $end
$var reg 1 + cnt_rst $end
$var reg 32 , crc_state_reg [31:0] $end
$var reg 16 - data [15:0] $end
$var reg 8 . id [7:0] $end
$var reg 1 / latch_inputs $end
$var reg 8 0 o_data [7:0] $end
$var reg 1 1 o_istx $end
$var reg 8 2 o_state [7:0] $end
$var reg 1 3 shift_crc $end
$var reg 3 4 state_next [2:0] $end
$var reg 3 5 state_reg [2:0] $end
$scope begin genblk1[0] $end
$upscope $end
$scope begin genblk1[1] $end
$upscope $end
$scope begin genblk2[1] $end
$upscope $end
$scope begin genblk2[2] $end
$upscope $end
$scope begin genblk2[3] $end
$upscope $end
$scope module counter $end
$var wire 1 ! i_clk $end
$var wire 4 6 i_data [3:0] $end
$var wire 1 ( i_en $end
$var wire 1 7 i_ld $end
$var wire 1 ) i_rst $end
$var wire 4 8 o_data [3:0] $end
$var reg 4 9 next [3:0] $end
$upscope $end
$scope module crc32 $end
$var wire 8 : data_in [7:0] $end
$var wire 32 ; state_in [31:0] $end
$var wire 32 < state_out [31:0] $end
$var wire 8 = data_out [7:0] $end
$var reg 8 > data_val [7:0] $end
$var reg 32 ? state_val [31:0] $end
$var integer 32 @ i [31:0] $end
$var integer 32 A j [31:0] $end
$scope begin genblk1 $end
$scope begin loop1[0] $end
$upscope $end
$scope begin loop1[1] $end
$upscope $end
$scope begin loop1[2] $end
$upscope $end
$scope begin loop1[3] $end
$upscope $end
$scope begin loop1[4] $end
$upscope $end
$scope begin loop1[5] $end
$upscope $end
$scope begin loop1[6] $end
$upscope $end
$scope begin loop1[7] $end
$upscope $end
$scope begin loop1[8] $end
$upscope $end
$scope begin loop1[9] $end
$upscope $end
$scope begin loop1[10] $end
$upscope $end
$scope begin loop1[11] $end
$upscope $end
$scope begin loop1[12] $end
$upscope $end
$scope begin loop1[13] $end
$upscope $end
$scope begin loop1[14] $end
$upscope $end
$scope begin loop1[15] $end
$upscope $end
$scope begin loop1[16] $end
$upscope $end
$scope begin loop1[17] $end
$upscope $end
$scope begin loop1[18] $end
$upscope $end
$scope begin loop1[19] $end
$upscope $end
$scope begin loop1[20] $end
$upscope $end
$scope begin loop1[21] $end
$upscope $end
$scope begin loop1[22] $end
$upscope $end
$scope begin loop1[23] $end
$upscope $end
$scope begin loop1[24] $end
$upscope $end
$scope begin loop1[25] $end
$upscope $end
$scope begin loop1[26] $end
$upscope $end
$scope begin loop1[27] $end
$upscope $end
$scope begin loop1[28] $end
$upscope $end
$scope begin loop1[29] $end
$upscope $end
$scope begin loop1[30] $end
$upscope $end
$scope begin loop1[31] $end
$upscope $end
$scope begin loop2[0] $end
$upscope $end
$scope begin loop2[1] $end
$upscope $end
$scope begin loop2[2] $end
$upscope $end
$scope begin loop2[3] $end
$upscope $end
$scope begin loop2[4] $end
$upscope $end
$scope begin loop2[5] $end
$upscope $end
$scope begin loop2[6] $end
$upscope $end
$scope begin loop2[7] $end
$upscope $end
$upscope $end
$upscope $end
$upscope $end
$upscope $end
$enddefinitions $end
#0
$dumpvars
b100000 A
b11111111111111111111111111111111 @
b1000001000000000000000000000000 ?
b1000001 >
b11111100 =
b1001110000010001011111110110100 <
b11111111111111111111111111111111 ;
b0 :
b0 9
b0 8
z7
bz 6
b0 5
b1 4
03
bx 2
01
b0 0
1/
bx .
bx -
b11111111111111111111111111111111 ,
1+
0*
1)
1(
b0 '
b1001110000010001011111110110100 &
0%
b1 $
1#
b0 "
0!
$end
#10000
b10010000101011010011111101101100 &
b10010000101011010011111101101100 <
b1010100 =
b10 4
0/
11
b10101010 0
b10101010 :
1*
b0 -
b1 .
b1 5
1!
#20000
0!
#30000
b11 4
b10 5
1!
#40000
0!
#50000
b100 4
0)
b11 5
1!
#60000
0!
#70000
b1001010110010011010001000000011 &
b1001010110010011010001000000011 <
b11111101 =
13
0)
b1 0
b1 :
0+
b100 5
b1 '
b1 8
b1 9
1!
#80000
0!
#90000
13
0)
b10 0
b10 :
b11011011001011001001111011001111 &
b11011011001011001001111011001111 <
b1001001 =
b10 '
b10 8
b10 9
b1001010110010011010001000000011 ,
b1001010110010011010001000000011 ;
1!
#100000
0!
#110000
b10110010011100100111110001000 &
b10110010011100100111110001000 <
b11011000 =
13
0)
b0 0
b0 :
b11011011001011001001111011001111 ,
b11011011001011001001111011001111 ;
b11 '
b11 8
b11 9
1!
#120000
0!
#130000
13
0)
b11000110110000001111011000010 &
b11000110110000001111011000010 <
b10110 =
b100 '
b100 8
b100 9
b10110010011100100111110001000 ,
b10110010011100100111110001000 ;
1!
#140000
0!
#150000
b11011000000111101100001000000000 &
b11011000000111101100001000000000 <
b0 =
03
0)
b11000 0
b11000 :
b11000110110000001111011000010 ,
b11000110110000001111011000010 ;
b101 '
b101 8
b101 9
1!
#160000
0!
#170000
b10000101100101000101001010011001 &
b10000101100101000101001010011001 <
b11000011 =
03
0)
b11011000 0
b11011000 :
b110 '
b110 8
b110 9
1!
#180000
0!
#190000
b11000010100110001000111110110010 &
b11000010100110001000111110110010 <
b110 =
03
0)
b11110 0
b11110 :
b111 '
b111 8
b111 9
1!
#200000
0!
#210000
b11100110000011110101111100111111 &
b11100110000011110101111100111111 <
b11011001 =
b101 4
03
0)
b11000010 0
b11000010 :
b1000 '
b1000 8
b1000 9
1!
#220000
0!
#230000
b11011101010101010011010010100100 &
b11011101010101010011010010100100 <
b1001100 =
b0 4
1)
b1010101 0
b1010101 :
b101 5
b1001 '
b1001 8
b1001 9
1!
#240000
0!
#250000
b10110010000001111111010011001000 &
b10110010000001111111010011001000 <
b11000 =
b1 4
1/
01
b0 0
b0 :
1+
b0 '
b0 8
b0 9
b0 5
1!
#260000
0!
#270000
b10010000101011010011111101101100 &
b10010000101011010011111101101100 <
b1010100 =
b10 4
0/
11
b10101010 0
b10101010 :
b11111111111111111111111111111111 ,
b11111111111111111111111111111111 ;
b1 5
1!
#280000
0!
#290000
b11 4
b10 5
1!
#300000
0!
#310000
b100 4
0)
b11 5
1!
#320000
0!
#330000
b1001010110010011010001000000011 &
b1001010110010011010001000000011 <
b11111101 =
13
0)
b1 0
b1 :
0+
b1 '
b1 8
b1 9
b100 5
1!
#340000
0!
#350000
b11011011001011001001111011001111 &
b11011011001011001001111011001111 <
b1001001 =
13
0)
b10 0
b10 :
b1001010110010011010001000000011 ,
b1001010110010011010001000000011 ;
b10 '
b10 8
b10 9
1!
#360000
0!
#370000
13
0)
b0 0
b0 :
b10110010011100100111110001000 &
b10110010011100100111110001000 <
b11011000 =
b11 '
b11 8
b11 9
b11011011001011001001111011001111 ,
b11011011001011001001111011001111 ;
1!
#380000
0!
#390000
b11000110110000001111011000010 &
b11000110110000001111011000010 <
b10110 =
13
0)
b10110010011100100111110001000 ,
b10110010011100100111110001000 ;
b100 '
b100 8
b100 9
1!
#400000
0!
#410000
03
0)
b11000 0
b11000 :
b11011000000111101100001000000000 &
b11011000000111101100001000000000 <
b0 =
b101 '
b101 8
b101 9
b11000110110000001111011000010 ,
b11000110110000001111011000010 ;
1!
#420000
0!
#430000
b10000101100101000101001010011001 &
b10000101100101000101001010011001 <
b11000011 =
03
0)
b11011000 0
b11011000 :
b110 '
b110 8
b110 9
1!
#440000
0!
#450000
b11000010100110001000111110110010 &
b11000010100110001000111110110010 <
b110 =
03
0)
b11110 0
b11110 :
b111 '
b111 8
b111 9
1!
#460000
0!
#470000
b11100110000011110101111100111111 &
b11100110000011110101111100111111 <
b11011001 =
b101 4
03
0)
b11000010 0
b11000010 :
b1000 '
b1000 8
b1000 9
1!
#480000
0!
#490000
b11011101010101010011010010100100 &
b11011101010101010011010010100100 <
b1001100 =
b0 4
1)
b1010101 0
b1010101 :
b1001 '
b1001 8
b1001 9
b101 5
1!
#500000
0!
#510000
b10110010000001111111010011001000 &
b10110010000001111111010011001000 <
b11000 =
b1 4
1/
01
b0 0
b0 :
1+
b0 5
b0 '
b0 8
b0 9
1!
#520000
0!
#530000
b10010000101011010011111101101100 &
b10010000101011010011111101101100 <
b1010100 =
b10 4
0/
11
b10101010 0
b10101010 :
b11111111111111111111111111111111 ,
b11111111111111111111111111111111 ;
b1 5
1!
#540000
0!
#550000
b11 4
b10 5
1!
#560000
0!
#570000
b100 4
0)
b11 5
1!
#580000
0!
#590000
b1001010110010011010001000000011 &
b1001010110010011010001000000011 <
b11111101 =
13
0)
b1 0
b1 :
0+
b100 5
b1 '
b1 8
b1 9
1!
#600000
0!
#610000
13
0)
b10 0
b10 :
b11011011001011001001111011001111 &
b11011011001011001001111011001111 <
b1001001 =
b10 '
b10 8
b10 9
b1001010110010011010001000000011 ,
b1001010110010011010001000000011 ;
1!
#620000
0!
#630000
b10110010011100100111110001000 &
b10110010011100100111110001000 <
b11011000 =
13
0)
b0 0
b0 :
b11011011001011001001111011001111 ,
b11011011001011001001111011001111 ;
b11 '
b11 8
b11 9
1!
#640000
0!
#650000
13
0)
b11000110110000001111011000010 &
b11000110110000001111011000010 <
b10110 =
b100 '
b100 8
b100 9
b10110010011100100111110001000 ,
b10110010011100100111110001000 ;
1!
#660000
0!
#670000
b11011000000111101100001000000000 &
b11011000000111101100001000000000 <
b0 =
03
0)
b11000 0
b11000 :
b11000110110000001111011000010 ,
b11000110110000001111011000010 ;
b101 '
b101 8
b101 9
1!
#680000
0!
#690000
b10000101100101000101001010011001 &
b10000101100101000101001010011001 <
b11000011 =
03
0)
b11011000 0
b11011000 :
b110 '
b110 8
b110 9
1!
#700000
0!
#710000
b11000010100110001000111110110010 &
b11000010100110001000111110110010 <
b110 =
03
0)
b11110 0
b11110 :
b111 '
b111 8
b111 9
1!
#720000
0!
#730000
b11100110000011110101111100111111 &
b11100110000011110101111100111111 <
b11011001 =
b101 4
03
0)
b11000010 0
b11000010 :
b1000 '
b1000 8
b1000 9
1!
#740000
0!
#750000
b11011101010101010011010010100100 &
b11011101010101010011010010100100 <
b1001100 =
b0 4
1)
b1010101 0
b1010101 :
b101 5
b1001 '
b1001 8
b1001 9
1!
#760000
0!
#770000
b10110010000001111111010011001000 &
b10110010000001111111010011001000 <
b11000 =
b1 4
1/
01
b0 0
b0 :
1+
b0 '
b0 8
b0 9
b0 5
1!
#780000
0!
#790000
b10010000101011010011111101101100 &
b10010000101011010011111101101100 <
b1010100 =
b10 4
0/
11
b10101010 0
b10101010 :
b11111111111111111111111111111111 ,
b11111111111111111111111111111111 ;
b1 5
1!
#800000
0!
#810000
b11 4
b10 5
1!
#820000
0!
#830000
b100 4
0)
b11 5
1!
#840000
0!
#850000
b1001010110010011010001000000011 &
b1001010110010011010001000000011 <
b11111101 =
13
0)
b1 0
b1 :
0+
b1 '
b1 8
b1 9
b100 5
1!
#860000
0!
#870000
b11011011001011001001111011001111 &
b11011011001011001001111011001111 <
b1001001 =
13
0)
b10 0
b10 :
b1001010110010011010001000000011 ,
b1001010110010011010001000000011 ;
b10 '
b10 8
b10 9
1!
#880000
0!
#890000
13
0)
b0 0
b0 :
b10110010011100100111110001000 &
b10110010011100100111110001000 <
b11011000 =
b11 '
b11 8
b11 9
b11011011001011001001111011001111 ,
b11011011001011001001111011001111 ;
1!
#900000
0!
#910000
b11000110110000001111011000010 &
b11000110110000001111011000010 <
b10110 =
13
0)
b10110010011100100111110001000 ,
b10110010011100100111110001000 ;
b100 '
b100 8
b100 9
1!
#920000
0!
#930000
03
0)
b11000 0
b11000 :
b11011000000111101100001000000000 &
b11011000000111101100001000000000 <
b0 =
b101 '
b101 8
b101 9
b11000110110000001111011000010 ,
b11000110110000001111011000010 ;
1!
#940000
0!
#950000
b10000101100101000101001010011001 &
b10000101100101000101001010011001 <
b11000011 =
03
0)
b11011000 0
b11011000 :
b110 '
b110 8
b110 9
1!
#960000
0!
#970000
b11000010100110001000111110110010 &
b11000010100110001000111110110010 <
b110 =
03
0)
b11110 0
b11110 :
b111 '
b111 8
b111 9
1!
#980000
0!
#990000
b11100110000011110101111100111111 &
b11100110000011110101111100111111 <
b11011001 =
b101 4
03
0)
b11000010 0
b11000010 :
b1000 '
b1000 8
b1000 9
1!
#1000000
0!
#1010000
b11011101010101010011010010100100 &
b11011101010101010011010010100100 <
b1001100 =
b0 4
1)
b1010101 0
b1010101 :
b1001 '
b1001 8
b1001 9
b101 5
1!
#1020000
0!
#1030000
b10110010000001111111010011001000 &
b10110010000001111111010011001000 <
b11000 =
b1 4
1/
01
b0 0
b0 :
1+
b0 5
b0 '
b0 8
b0 9
1!
#1040000
0!
#1050000
b10010000101011010011111101101100 &
b10010000101011010011111101101100 <
b1010100 =
b10 4
0/
11
b10101010 0
b10101010 :
b11111111111111111111111111111111 ,
b11111111111111111111111111111111 ;
b1 5
1!
#1060000
0!
#1070000
b11 4
b10 5
1!
#1080000
0!
#1090000
b100 4
0)
b11 5
1!
#1100000
0!
#1110000
b1001010110010011010001000000011 &
b1001010110010011010001000000011 <
b11111101 =
13
0)
b1 0
b1 :
0+
b100 5
b1 '
b1 8
b1 9
1!
#1120000
0!
#1130000
13
0)
b10 0
b10 :
b11011011001011001001111011001111 &
b11011011001011001001111011001111 <
b1001001 =
b10 '
b10 8
b10 9
b1001010110010011010001000000011 ,
b1001010110010011010001000000011 ;
1!
#1140000
0!
#1150000
b10110010011100100111110001000 &
b10110010011100100111110001000 <
b11011000 =
13
0)
b0 0
b0 :
b11011011001011001001111011001111 ,
b11011011001011001001111011001111 ;
b11 '
b11 8
b11 9
1!
#1160000
0!
#1170000
13
0)
b11000110110000001111011000010 &
b11000110110000001111011000010 <
b10110 =
b100 '
b100 8
b100 9
b10110010011100100111110001000 ,
b10110010011100100111110001000 ;
1!
#1180000
0!
#1190000
b11011000000111101100001000000000 &
b11011000000111101100001000000000 <
b0 =
03
0)
b11000 0
b11000 :
b11000110110000001111011000010 ,
b11000110110000001111011000010 ;
b101 '
b101 8
b101 9
1!
#1200000
0!
#1210000
b10000101100101000101001010011001 &
b10000101100101000101001010011001 <
b11000011 =
03
0)
b11011000 0
b11011000 :
b110 '
b110 8
b110 9
1!
#1220000
0!
#1230000
b11000010100110001000111110110010 &
b11000010100110001000111110110010 <
b110 =
03
0)
b11110 0
b11110 :
b111 '
b111 8
b111 9
1!
#1240000
0!
#1250000
b11100110000011110101111100111111 &
b11100110000011110101111100111111 <
b11011001 =
b101 4
03
0)
b11000010 0
b11000010 :
b1000 '
b1000 8
b1000 9
1!
#1260000
0!
#1270000
b11011101010101010011010010100100 &
b11011101010101010011010010100100 <
b1001100 =
b0 4
1)
b1010101 0
b1010101 :
b101 5
b1001 '
b1001 8
b1001 9
1!
#1280000
0!
#1290000
b10110010000001111111010011001000 &
b10110010000001111111010011001000 <
b11000 =
b1 4
1/
01
b0 0
b0 :
1+
b0 '
b0 8
b0 9
b0 5
1!
#1300000
0!
#1310000
b10010000101011010011111101101100 &
b10010000101011010011111101101100 <
b1010100 =
b10 4
0/
11
b10101010 0
b10101010 :
b11111111111111111111111111111111 ,
b11111111111111111111111111111111 ;
b1 5
1!
#1320000
0!
#1330000
b11 4
b10 5
1!
#1340000
0!
#1350000
b100 4
0)
b11 5
1!
#1360000
0!
#1370000
b1001010110010011010001000000011 &
b1001010110010011010001000000011 <
b11111101 =
13
0)
b1 0
b1 :
0+
b1 '
b1 8
b1 9
b100 5
1!
#1380000
0!
#1390000
b11011011001011001001111011001111 &
b11011011001011001001111011001111 <
b1001001 =
13
0)
b10 0
b10 :
b1001010110010011010001000000011 ,
b1001010110010011010001000000011 ;
b10 '
b10 8
b10 9
1!
#1400000
0!
#1410000
13
0)
b0 0
b0 :
b10110010011100100111110001000 &
b10110010011100100111110001000 <
b11011000 =
b11 '
b11 8
b11 9
b11011011001011001001111011001111 ,
b11011011001011001001111011001111 ;
1!
#1420000
0!
#1430000
b11000110110000001111011000010 &
b11000110110000001111011000010 <
b10110 =
13
0)
b10110010011100100111110001000 ,
b10110010011100100111110001000 ;
b100 '
b100 8
b100 9
1!
#1440000
0!
#1450000
03
0)
b11000 0
b11000 :
b11011000000111101100001000000000 &
b11011000000111101100001000000000 <
b0 =
b101 '
b101 8
b101 9
b11000110110000001111011000010 ,
b11000110110000001111011000010 ;
1!
#1460000
0!
#1470000
b10000101100101000101001010011001 &
b10000101100101000101001010011001 <
b11000011 =
03
0)
b11011000 0
b11011000 :
b110 '
b110 8
b110 9
1!
#1480000
0!
#1490000
b11000010100110001000111110110010 &
b11000010100110001000111110110010 <
b110 =
03
0)
b11110 0
b11110 :
b111 '
b111 8
b111 9
1!
#1500000
0!
#1510000
b11100110000011110101111100111111 &
b11100110000011110101111100111111 <
b11011001 =
b101 4
03
0)
b11000010 0
b11000010 :
b1000 '
b1000 8
b1000 9
1!
#1520000
0!
#1530000
b11011101010101010011010010100100 &
b11011101010101010011010010100100 <
b1001100 =
b0 4
1)
b1010101 0
b1010101 :
b1001 '
b1001 8
b1001 9
b101 5
1!
#1540000
0!
#1550000
b10110010000001111111010011001000 &
b10110010000001111111010011001000 <
b11000 =
b1 4
1/
01
b0 0
b0 :
1+
b0 5
b0 '
b0 8
b0 9
1!
#1560000
0!
#1570000
b10010000101011010011111101101100 &
b10010000101011010011111101101100 <
b1010100 =
b10 4
0/
11
b10101010 0
b10101010 :
b11111111111111111111111111111111 ,
b11111111111111111111111111111111 ;
b1 5
1!
#1580000
0!
#1590000
b11 4
b10 5
1!
#1600000
0!
#1610000
b100 4
0)
b11 5
1!
#1620000
0!
#1630000
b1001010110010011010001000000011 &
b1001010110010011010001000000011 <
b11111101 =
13
0)
b1 0
b1 :
0+
b100 5
b1 '
b1 8
b1 9
1!
#1640000
0!
#1650000
13
0)
b10 0
b10 :
b11011011001011001001111011001111 &
b11011011001011001001111011001111 <
b1001001 =
b10 '
b10 8
b10 9
b1001010110010011010001000000011 ,
b1001010110010011010001000000011 ;
1!
#1660000
0!
#1670000
b10110010011100100111110001000 &
b10110010011100100111110001000 <
b11011000 =
13
0)
b0 0
b0 :
b11011011001011001001111011001111 ,
b11011011001011001001111011001111 ;
b11 '
b11 8
b11 9
1!
#1680000
0!
#1690000
13
0)
b11000110110000001111011000010 &
b11000110110000001111011000010 <
b10110 =
b100 '
b100 8
b100 9
b10110010011100100111110001000 ,
b10110010011100100111110001000 ;
1!
#1700000
0!
#1710000
b11011000000111101100001000000000 &
b11011000000111101100001000000000 <
b0 =
03
0)
b11000 0
b11000 :
b11000110110000001111011000010 ,
b11000110110000001111011000010 ;
b101 '
b101 8
b101 9
1!
#1720000
0!
#1730000
b10000101100101000101001010011001 &
b10000101100101000101001010011001 <
b11000011 =
03
0)
b11011000 0
b11011000 :
b110 '
b110 8
b110 9
1!
#1740000
0!
#1750000
b11000010100110001000111110110010 &
b11000010100110001000111110110010 <
b110 =
03
0)
b11110 0
b11110 :
b111 '
b111 8
b111 9
1!
#1760000
0!
#1770000
b11100110000011110101111100111111 &
b11100110000011110101111100111111 <
b11011001 =
b101 4
03
0)
b11000010 0
b11000010 :
b1000 '
b1000 8
b1000 9
1!
#1780000
0!
#1790000
b11011101010101010011010010100100 &
b11011101010101010011010010100100 <
b1001100 =
b0 4
1)
b1010101 0
b1010101 :
b101 5
b1001 '
b1001 8
b1001 9
1!
#1800000
0!
#1810000
b10110010000001111111010011001000 &
b10110010000001111111010011001000 <
b11000 =
b1 4
1/
01
b0 0
b0 :
1+
b0 '
b0 8
b0 9
b0 5
1!
#1820000
0!
#1830000
b10010000101011010011111101101100 &
b10010000101011010011111101101100 <
b1010100 =
b10 4
0/
11
b10101010 0
b10101010 :
b11111111111111111111111111111111 ,
b11111111111111111111111111111111 ;
b1 5
1!
#1840000
0!
#1850000
b11 4
b10 5
1!
#1860000
0!
#1870000
b100 4
0)
b11 5
1!
#1880000
0!
#1890000
b1001010110010011010001000000011 &
b1001010110010011010001000000011 <
b11111101 =
13
0)
b1 0
b1 :
0+
b1 '
b1 8
b1 9
b100 5
1!
#1900000
0!
#1910000
b11011011001011001001111011001111 &
b11011011001011001001111011001111 <
b1001001 =
13
0)
b10 0
b10 :
b1001010110010011010001000000011 ,
b1001010110010011010001000000011 ;
b10 '
b10 8
b10 9
1!
#1920000
0!
#1930000
13
0)
b0 0
b0 :
b10110010011100100111110001000 &
b10110010011100100111110001000 <
b11011000 =
b11 '
b11 8
b11 9
b11011011001011001001111011001111 ,
b11011011001011001001111011001111 ;
1!
#1940000
0!
#1950000
b11000110110000001111011000010 &
b11000110110000001111011000010 <
b10110 =
13
0)
b10110010011100100111110001000 ,
b10110010011100100111110001000 ;
b100 '
b100 8
b100 9
1!
#1960000
0!
#1970000
03
0)
b11000 0
b11000 :
b11011000000111101100001000000000 &
b11011000000111101100001000000000 <
b0 =
b101 '
b101 8
b101 9
b11000110110000001111011000010 ,
b11000110110000001111011000010 ;
1!
#1980000
0!
#1990000
b10000101100101000101001010011001 &
b10000101100101000101001010011001 <
b11000011 =
03
0)
b11011000 0
b11011000 :
b110 '
b110 8
b110 9
1!
