Firmware/cic/out.vcd
$date
	Thu Jun 17 13:20:37 2021
$end
$version
	Icarus Verilog
$end
$timescale
	1ns
$end
$scope module cic_tb $end
$scope module DUT $end
$var wire 1 ! i_clk $end
$var wire 8 " i_data [7:0] $end
$var wire 1 # i_en $end
$var wire 1 $ i_rst $end
$var wire 1 % o_clk $end
$var wire 18 & o_data [17:0] $end
$var wire 18 ' i_data_ext [17:0] $end
$var wire 1 ( dec_clk $end
$var wire 2 ) dec [1:0] $end
$var reg 19 * test [18:0] $end
$scope begin genblk1[0] $end
$scope module int $end
$var wire 1 ! i_clk $end
$var wire 1 # i_en $end
$var wire 1 $ i_rst $end
$var wire 18 + i_x [17:0] $end
$var wire 18 , x_int [17:0] $end
$var wire 18 - o_y [17:0] $end
$var wire 18 . i_x_ext [17:0] $end
$scope module zinv $end
$var wire 1 ! i_clk $end
$var wire 18 / i_d [17:0] $end
$var wire 1 $ i_rst $end
$var wire 18 0 o_q [17:0] $end
$var reg 18 1 q [17:0] $end
$upscope $end
$upscope $end
$upscope $end
$scope begin genblk1[1] $end
$scope module int $end
$var wire 1 ! i_clk $end
$var wire 1 # i_en $end
$var wire 1 $ i_rst $end
$var wire 18 2 i_x [17:0] $end
$var wire 18 3 x_int [17:0] $end
$var wire 18 4 o_y [17:0] $end
$var wire 18 5 i_x_ext [17:0] $end
$scope module zinv $end
$var wire 1 ! i_clk $end
$var wire 18 6 i_d [17:0] $end
$var wire 1 $ i_rst $end
$var wire 18 7 o_q [17:0] $end
$var reg 18 8 q [17:0] $end
$upscope $end
$upscope $end
$upscope $end
$scope begin genblk1[2] $end
$scope module int $end
$var wire 1 ! i_clk $end
$var wire 1 # i_en $end
$var wire 1 $ i_rst $end
$var wire 18 9 i_x [17:0] $end
$var wire 18 : x_int [17:0] $end
$var wire 18 ; o_y [17:0] $end
$var wire 18 < i_x_ext [17:0] $end
$scope module zinv $end
$var wire 1 ! i_clk $end
$var wire 18 = i_d [17:0] $end
$var wire 1 $ i_rst $end
$var wire 18 > o_q [17:0] $end
$var reg 18 ? q [17:0] $end
$upscope $end
$upscope $end
$upscope $end
$scope begin genblk1[3] $end
$scope module int $end
$var wire 1 ! i_clk $end
$var wire 1 # i_en $end
$var wire 1 $ i_rst $end
$var wire 18 @ i_x [17:0] $end
$var wire 18 A x_int [17:0] $end
$var wire 18 B o_y [17:0] $end
$var wire 18 C i_x_ext [17:0] $end
$scope module zinv $end
$var wire 1 ! i_clk $end
$var wire 18 D i_d [17:0] $end
$var wire 1 $ i_rst $end
$var wire 18 E o_q [17:0] $end
$var reg 18 F q [17:0] $end
$upscope $end
$upscope $end
$upscope $end
$scope begin genblk1[4] $end
$scope module int $end
$var wire 1 ! i_clk $end
$var wire 1 # i_en $end
$var wire 1 $ i_rst $end
$var wire 18 G i_x [17:0] $end
$var wire 18 H x_int [17:0] $end
$var wire 18 I o_y [17:0] $end
$var wire 18 J i_x_ext [17:0] $end
$scope module zinv $end
$var wire 1 ! i_clk $end
$var wire 18 K i_d [17:0] $end
$var wire 1 $ i_rst $end
$var wire 18 L o_q [17:0] $end
$var reg 18 M q [17:0] $end
$upscope $end
$upscope $end
$upscope $end
$scope begin genblk3 $end
$scope module dec_cnt $end
$var wire 1 ! i_clk $end
$var wire 2 N i_data [1:0] $end
$var wire 1 # i_en $end
$var wire 1 O i_ld $end
$var wire 1 $ i_rst $end
$var wire 1 P i_up $end
$var wire 2 Q o_data [1:0] $end
$var reg 2 R next [1:0] $end
$upscope $end
$upscope $end
$scope begin genblk4[0] $end
$scope module comb $end
$var wire 1 ( i_clk $end
$var wire 18 S i_data [17:0] $end
$var wire 1 # i_en $end
$var wire 1 $ i_rst $end
$var reg 18 T delay [17:0] $end
$var reg 18 U o_data [17:0] $end
$upscope $end
$upscope $end
$scope begin genblk4[1] $end
$scope module comb $end
$var wire 1 ( i_clk $end
$var wire 18 V i_data [17:0] $end
$var wire 1 # i_en $end
$var wire 1 $ i_rst $end
$var reg 18 W delay [17:0] $end
$var reg 18 X o_data [17:0] $end
$upscope $end
$upscope $end
$scope begin genblk4[2] $end
$scope module comb $end
$var wire 1 ( i_clk $end
$var wire 18 Y i_data [17:0] $end
$var wire 1 # i_en $end
$var wire 1 $ i_rst $end
$var reg 18 Z delay [17:0] $end
$var reg 18 [ o_data [17:0] $end
$upscope $end
$upscope $end
$scope begin genblk4[3] $end
$scope module comb $end
$var wire 1 ( i_clk $end
$var wire 18 \ i_data [17:0] $end
$var wire 1 # i_en $end
$var wire 1 $ i_rst $end
$var reg 18 ] delay [17:0] $end
$var reg 18 ^ o_data [17:0] $end
$upscope $end
$upscope $end
$scope begin genblk4[4] $end
$scope module comb $end
$var wire 1 ( i_clk $end
$var wire 18 _ i_data [17:0] $end
$var wire 1 # i_en $end
$var wire 1 $ i_rst $end
$var reg 18 ` delay [17:0] $end
$var reg 18 a o_data [17:0] $end
$upscope $end
$upscope $end
$upscope $end
$upscope $end
$enddefinitions $end
#0
$dumpvars
bx a
b0 `
bx _
bx ^
b0 ]
bx \
bx [
b0 Z
bx Y
bx X
b0 W
bx V
bx U
b0 T
bx S
b0 R
b0 Q
1P
0O
bz N
b0 M
b0 L
b0 K
b0 J
b0 I
b0 H
b0 G
b0 F
b0 E
b0 D
b0 C
b0 B
b0 A
b0 @
b0 ?
b0 >
b0 =
b0 <
b0 ;
b0 :
b0 9
b0 8
b0 7
b0 6
b0 5
b0 4
b0 3
b0 2
b0 1
b0 0
b0 /
b0 .
b0 -
b0 ,
b0 +
bx *
b0 )
0(
b0 '
bx &
0%
1$
1#
b0 "
0!
$end
#10
1!
#20
0!
#30
1!
#40
0!
0$
#50
b1 )
b1 Q
b1 R
1!
#60
0!
#70
b0 S
bx T
bx W
bx Z
bx ]
bx `
b0 *
1%
1(
b10 )
b10 Q
b10 R
1!
#80
0!
#90
b11 )
b11 Q
b11 R
1!
#100
0!
#110
0%
0(
b0 )
b0 Q
b0 R
1!
#120
0!
#130
b1 )
b1 Q
b1 R
1!
#140
0!
#150
b0 T
1%
1(
b10 )
b10 Q
b10 R
1!
#160
0!
#170
b11 )
b11 Q
b11 R
1!
#180
0!
#190
0%
0(
b0 )
b0 Q
b0 R
1!
#200
0!
#210
b1 )
b1 Q
b1 R
1!
#220
0!
#230
b0 U
b0 V
1%
1(
b10 )
b10 Q
b10 R
1!
#240
0!
#250
b11 )
b11 Q
b11 R
1!
#260
0!
#270
0%
0(
b0 )
b0 Q
b0 R
1!
#280
0!
#290
b1 )
b1 Q
b1 R
1!
#300
0!
#310
b0 W
1%
1(
b10 )
b10 Q
b10 R
1!
#320
0!
#330
b11 )
b11 Q
b11 R
1!
#340
0!
#350
0%
0(
b0 )
b0 Q
b0 R
1!
#360
0!
#370
b1 )
b1 Q
b1 R
1!
#380
0!
#390
b0 X
b0 Y
1%
1(
b10 )
b10 Q
b10 R
1!
#400
0!
#410
b11 )
b11 Q
b11 R
1!
#420
0!
#430
0%
0(
b0 )
b0 Q
b0 R
1!
#440
0!
#450
b1 )
b1 Q
b1 R
1!
#460
0!
#470
b0 Z
1%
1(
b10 )
b10 Q
b10 R
1!
#480
0!
#490
b11 )
b11 Q
b11 R
1!
#500
0!
#510
0%
0(
b0 )
b0 Q
b0 R
1!
#520
0!
#530
b1 )
b1 Q
b1 R
1!
#540
0!
#550
b0 [
b0 \
1%
1(
b10 )
b10 Q
b10 R
1!
#560
0!
#570
b11 )
b11 Q
b11 R
1!
#580
0!
#590
0%
0(
b0 )
b0 Q
b0 R
1!
#600
0!
#610
b1 )
b1 Q
b1 R
1!
#620
0!
#630
b0 ]
1%
1(
b10 )
b10 Q
b10 R
1!
#640
0!
#650
b11 )
b11 Q
b11 R
1!
#660
0!
#670
0%
0(
b0 )
b0 Q
b0 R
1!
#680
0!
#690
b1 )
b1 Q
b1 R
1!
#700
0!
#710
b0 ^
b0 _
1%
1(
b10 )
b10 Q
b10 R
1!
#720
0!
#730
b11 )
b11 Q
b11 R
1!
#740
0!
#750
0%
0(
b0 )
b0 Q
b0 R
1!
#760
0!
#770
b1 )
b1 Q
b1 R
1!
#780
0!
#790
b0 `
1%
1(
b10 )
b10 Q
b10 R
1!
#800
0!
#810
b11 )
b11 Q
b11 R
1!
#820
0!
#830
0%
0(
b0 )
b0 Q
b0 R
1!
#840
0!
#850
b1 )
b1 Q
b1 R
1!
#860
0!
#870
b0 &
b0 a
1%
1(
b10 )
b10 Q
b10 R
1!
#880
0!
#890
b11 )
b11 Q
b11 R
1!
#900
0!
#910
0%
0(
b0 )
b0 Q
b0 R
1!
#920
0!
#930
b1 )
b1 Q
b1 R
1!
#940
0!
#950
1%
1(
b10 )
b10 Q
b10 R
1!
#960
0!
#970
b11 )
b11 Q
b11 R
1!
#980
0!
#990
0%
0(
b0 )
b0 Q
b0 R
1!
#1000
0!
#1010
b1 )
b1 Q
b1 R
1!
#1020
0!
#1030
1%
1(
b1111111 3
b1111111 6
b10 )
b10 Q
b10 R
b1111111 5
b1111111 -
b1111111 0
b1111111 1
b1111111 2
b11111110 ,
b11111110 /
1!
b1111111 .
b1111111 +
b1111111 '
b1111111 "
#1040
0!
#1050
b101111101 ,
b101111101 /
b1111111 :
b1111111 =
b101111101 3
b101111101 6
b11111110 5
b11111110 -
b11111110 0
b11111110 1
b11111110 2
b1111111 <
b1111111 4
b1111111 7
b1111111 8
b1111111 9
b11 )
b11 Q
b11 R
1!
#1060
0!
#1070
0%
0(
b1111111 A
b1111111 D
b111111100 :
b111111100 =
b1011111010 3
b1011111010 6
b111111100 ,
b111111100 /
b0 )
b0 Q
b0 R
b1111111 C
b1111111 ;
b1111111 >
b1111111 ?
b1111111 @
b101111101 <
b101111101 4
b101111101 7
b101111101 8
b101111101 9
b101111101 5
b101111101 -
b101111101 0
b101111101 1
b101111101 2
1!
#1080
0!
#1090
b1001111011 ,
b1001111011 /
b10011110110 3
b10011110110 6
b10011110110 :
b10011110110 =
b1111111 H
b1111111 K
b1001111011 A
b1001111011 D
b111111100 5
b111111100 -
b111111100 0
b111111100 1
b111111100 2
b1011111010 <
b1011111010 4
b1011111010 7
b1011111010 8
b1011111010 9
b111111100 C
b111111100 ;
b111111100 >
b111111100 ?
b111111100 @
b1111111 J
b1111111 B
b1111111 E
b1111111 F
b1111111 G
b1 )
b1 Q
b1 R
1!
#1100
0!
#1110
b1111111 S
b1111111 *
1%
1(
b1011111010 H
b1011111010 K
b11101110001 A
b11101110001 D
b100111101100 :
b100111101100 =
b11101110001 3
b11101110001 6
b1011111010 ,
b1011111010 /
b10 )
b10 Q
b10 R
b1111111 I
b1111111 L
b1111111 M
b1001111011 J
b1001111011 B
b1001111011 E
b1001111011 F
b1001111011 G
b10011110110 C
b10011110110 ;
b10011110110 >
b10011110110 ?
b10011110110 @
b10011110110 <
b10011110110 4
b10011110110 7
b10011110110 8
b10011110110 9
b1001111011 5
b1001111011 -
b1001111011 0
b1001111011 1
b1001111011 2
1!
#1120
0!
#1130
b1101111001 ,
b1101111001 /
b101001101011 3
b101001101011 6
b1000101011101 :
b1000101011101 =
b1000101011101 A
b1000101011101 D
b101001101011 H
b101001101011 K
b1011111010 5
b1011111010 -
b1011111010 0
b1011111010 1
b1011111010 2
b11101110001 <
b11101110001 4
b11101110001 7
b11101110001 8
b11101110001 9
b100111101100 C
b100111101100 ;
b100111101100 >
b100111101100 ?
b100111101100 @
b11101110001 J
b11101110001 B
b11101110001 E
b11101110001 F
b11101110001 G
b1011111010 I
b1011111010 L
b1011111010 M
b11 )
b11 Q
b11 R
1!
#1140
0!
#1150
0%
0(
b1101111001000 H
b1101111001000 K
b10001010111010 A
b10001010111010 D
b1101111001000 :
b1101111001000 =
b110111100100 3
b110111100100 6
b1111111000 ,
b1111111000 /
b0 )
b0 Q
b0 R
b101001101011 I
b101001101011 L
b101001101011 M
b1000101011101 J
b1000101011101 B
b1000101011101 E
b1000101011101 F
b1000101011101 G
b1000101011101 C
b1000101011101 ;
b1000101011101 >
b1000101011101 ?
b1000101011101 @
b101001101011 <
b101001101011 4
b101001101011 7
b101001101011 8
b101001101011 9
b1101111001 5
b1101111001 -
b1101111001 0
b1101111001 1
b1101111001 2
1!
#1160
0!
#1170
b10001110111 ,
b10001110111 /
b1000111011100 3
b1000111011100 6
b10100110101100 :
b10100110101100 =
b11111010000010 A
b11111010000010 D
b11111010000010 H
b11111010000010 K
b1111111000 5
b1111111000 -
b1111111000 0
b1111111000 1
b1111111000 2
b110111100100 <
b110111100100 4
b110111100100 7
b110111100100 8
b110111100100 9
b1101111001000 C
b1101111001000 ;
b1101111001000 >
b1101111001000 ?
b1101111001000 @
b10001010111010 J
b10001010111010 B
b10001010111010 E
b10001010111010 F
b10001010111010 G
b1101111001000 I
b1101111001000 L
b1101111001000 M
b1 )
b1 Q
b1 R
1!
#1180
0!
#1190
b11111010000010 S
b1111111 T
b1111111 U
b1111111 V
b11111010000010 *
1%
1(
b111110100000100 H
b111110100000100 K
b110100000101110 A
b110100000101110 D
b11101110001000 :
b11101110001000 =
b1011001010011 3
b1011001010011 6
b10011110110 ,
b10011110110 /
b10 )
b10 Q
b10 R
b11111010000010 I
b11111010000010 L
b11111010000010 M
b11111010000010 J
b11111010000010 B
b11111010000010 E
b11111010000010 F
b11111010000010 G
b10100110101100 C
b10100110101100 ;
b10100110101100 >
b10100110101100 ?
b10100110101100 @
b1000111011100 <
b1000111011100 4
b1000111011100 7
b1000111011100 8
b1000111011100 9
b10001110111 5
b10001110111 -
b10001110111 0
b10001110111 1
b10001110111 2
1!
#1200
0!
#1210
b10101110101 ,
b10101110101 /
b1101101001001 3
b1101101001001 6
b101000111011011 :
b101000111011011 =
b1010001110110110 A
b1010001110110110 D
b1110010100110010 H
b1110010100110010 K
b10011110110 5
b10011110110 -
b10011110110 0
b10011110110 1
b10011110110 2
b1011001010011 <
b1011001010011 4
b1011001010011 7
b1011001010011 8
b1011001010011 9
b11101110001000 C
b11101110001000 ;
b11101110001000 >
b11101110001000 ?
b11101110001000 @
b110100000101110 J
b110100000101110 B
b110100000101110 E
b110100000101110 F
b110100000101110 G
b111110100000100 I
b111110100000100 L
b111110100000100 M
b11 )
b11 Q
b11 R
1!
#1220
0!
#1230
0%
0(
b11000100011101000 H
b11000100011101000 K
b1111010110010001 A
b1111010110010001 D
b110110100100100 :
b110110100100100 =
b10000010111110 3
b10000010111110 6
b10111110100 ,
b10111110100 /
b0 )
b0 Q
b0 R
b1110010100110010 I
b1110010100110010 L
b1110010100110010 M
b1010001110110110 J
b1010001110110110 B
b1010001110110110 E
b1010001110110110 F
b1010001110110110 G
b101000111011011 C
b101000111011011 ;
b101000111011011 >
b101000111011011 ?
b101000111011011 @
b1101101001001 <
b1101101001001 4
b1101101001001 7
b1101101001001 8
b1101101001001 9
b10101110101 5
b10101110101 -
b10101110101 0
b10101110101 1
b10101110101 2
1!
#1240
0!
#1250
b11001110011 ,
b11001110011 /
b10011010110010 3
b10011010110010 6
b1000110111100010 :
b1000110111100010 =
b10110001010110101 A
b10110001010110101 D
b100111111001111001 H
b100111111001111001 K
b10111110100 5
b10111110100 -
b10111110100 0
b10111110100 1
b10111110100 2
b10000010111110 <
b10000010111110 4
b10000010111110 7
b10000010111110 8
b10000010111110 9
b110110100100100 C
b110110100100100 ;
b110110100100100 >
b110110100100100 ?
b110110100100100 @
b1111010110010001 J
b1111010110010001 B
b1111010110010001 E
b1111010110010001 F
b1111010110010001 G
b11000100011101000 I
b11000100011101000 L
b11000100011101000 M
b1 )
b1 Q
b1 R
1!
#1260
0!
#1270
b100111111001111001 S
b100111111001111001 *
b1111111 W
b1111111 X
b1111111 Y
b11111010000010 T
b11111000000011 U
b11111000000011 V
1%
1(
b111110000100101110 H
b111110000100101110 K
b11111000010010111 A
b11111000010010111 D
b1011010010010100 :
b1011010010010100 =
b10110100100101 3
b10110100100101 6
b11011110010 ,
b11011110010 /
b10 )
b10 Q
b10 R
b100111111001111001 I
b100111111001111001 L
b100111111001111001 M
b10110001010110101 J
b10110001010110101 B
b10110001010110101 E
b10110001010110101 F
b10110001010110101 G
b1000110111100010 C
b1000110111100010 ;
b1000110111100010 >
b1000110111100010 ?
b1000110111100010 @
b10011010110010 <
b10011010110010 4
b10011010110010 7
b10011010110010 8
b10011010110010 9
b11001110011 5
b11001110011 -
b11001110011 0
b11001110011 1
b11001110011 2
1!
#1280
0!
#1290
b11101110001 ,
b11101110001 /
b11010000010111 3
b11010000010111 6
b1110000110111001 :
b1110000110111001 =
b101010010100101011 A
b101010010100101011 D
b11101000111000101 H
b11101000111000101 K
b11011110010 5
b11011110010 -
b11011110010 0
b11011110010 1
b11011110010 2
b10110100100101 <
b10110100100101 4
b10110100100101 7
b10110100100101 8
b10110100100101 9
b1011010010010100 C
b1011010010010100 ;
b1011010010010100 >
b1011010010010100 ?
b1011010010010100 @
b11111000010010111 J
b11111000010010111 B
b11111000010010111 E
b11111000010010111 F
b11111000010010111 G
b111110000100101110 I
b111110000100101110 L
b111110000100101110 M
b11 )
b11 Q
b11 R
1!
#1300
0!
#1310
0%
0(
b111011011110000 H
b111011011110000 K
b111000011011100100 A
b111000011011100100 D
b10001010111010000 :
b10001010111010000 =
b11101110001000 3
b11101110001000 6
b11111110000 ,
b11111110000 /
b0 )
b0 Q
b0 R
b11101000111000101 I
b11101000111000101 L
b11101000111000101 M
b101010010100101011 J
b101010010100101011 B
b101010010100101011 E
b101010010100101011 F
b101010010100101011 G
b1110000110111001 C
b1110000110111001 ;
b1110000110111001 >
b1110000110111001 ?
b1110000110111001 @
b11010000010111 <
b11010000010111 4
b11010000010111 7
b11010000010111 8
b11010000010111 9
b11101110001 5
b11101110001 -
b11101110001 0
b11101110001 1
b11101110001 2
1!
#1320
0!
#1330
b100001101111 ,
b100001101111 /
b100001101111000 3
b100001101111000 6
b10101000101011000 :
b10101000101011000 =
b1001110010110100 A
b1001110010110100 D
b111111110111010100 H
b111111110111010100 K
b11111110000 5
b11111110000 -
b11111110000 0
b11111110000 1
b11111110000 2
b11101110001000 <
b11101110001000 4
b11101110001000 7
b11101110001000 8
b11101110001000 9
b10001010111010000 C
b10001010111010000 ;
b10001010111010000 >
b10001010111010000 ?
b10001010111010000 @
b111000011011100100 J
b111000011011100100 B
b111000011011100100 E
b111000011011100100 F
b111000011011100100 G
b111011011110000 I
b111011011110000 L
b111011011110000 M
b1 )
b1 Q
b1 R
1!
#1340
0!
#1350
b111111110111010100 S
b100111111001111001 T
b100011111111110111 U
b100011111111110111 V
b11111000000011 W
b11110110000100 X
b11110110000100 Y
b1111111 Z
b1111111 [
b1111111 \
b111111110111010100 *
1%
1(
b1001101010001000 H
b1001101010001000 K
b11110111000001100 A
b11110111000001100 D
b11001010011010000 :
b11001010011010000 =
b100101111100111 3
b100101111100111 6
b100011101110 ,
b100011101110 /
b10 )
b10 Q
b10 R
b111111110111010100 I
b111111110111010100 L
b111111110111010100 M
b1001110010110100 J
b1001110010110100 B
b1001110010110100 E
b1001110010110100 F
b1001110010110100 G
b10101000101011000 C
b10101000101011000 ;
b10101000101011000 >
b10101000101011000 ?
b10101000101011000 @
b100001101111000 <
b100001101111000 4
b100001101111000 7
b100001101111000 8
b100001101111000 9
b100001101111 5
b100001101111 -
b100001101111 0
b100001101111 1
b100001101111 2
1!
#1360
0!
#1370
b100101101101 ,
b100101101101 /
b101010011010101 3
b101010011010101 6
b11110000010110111 :
b11110000010110111 =
b111000001011011100 A
b111000001011011100 D
b101000100010010100 H
b101000100010010100 K
b100011101110 5
b100011101110 -
b100011101110 0
b100011101110 1
b100011101110 2
b100101111100111 <
b100101111100111 4
b100101111100111 7
b100101111100111 8
b100101111100111 9
b11001010011010000 C
b11001010011010000 ;
b11001010011010000 >
b11001010011010000 ?
b11001010011010000 @
b11110111000001100 J
b11110111000001100 B
b11110111000001100 E
b11110111000001100 F
b11110111000001100 G
b1001101010001000 I
b1001101010001000 L
b1001101010001000 M
b11 )
b11 Q
b11 R
1!
#1380
0!
#1390
0%
0(
b100000101101110000 H
b100000101101110000 K
b10110001110010011 A
b10110001110010011 D
b100011010110001100 :
b100011010110001100 =
b101111001000010 3
b101111001000010 6
b100111101100 ,
b100111101100 /
b0 )
b0 Q
b0 R
b101000100010010100 I
b101000100010010100 L
b101000100010010100 M
b111000001011011100 J
b111000001011011100 B
b111000001011011100 E
b111000001011011100 F
b111000001011011100 G
b11110000010110111 C
b11110000010110111 ;
b11110000010110111 >
b11110000010110111 ?
b11110000010110111 @
b101010011010101 <
b101010011010101 4
b101010011010101 7
b101010011010101 8
b101010011010101 9
b100101101101 5
b100101101101 -
b100101101101 0
b100101101101 1
b100101101101 2
1!
#1400
0!
#1410
b101001101011 ,
b101001101011 /
b110100000101110 3
b110100000101110 6
b101001001111001110 :
b101001001111001110 =
b111001100100011111 A
b111001100100011111 D
b110110111100000011 H
b110110111100000011 K
b100111101100 5
b100111101100 -
b100111101100 0
b100111101100 1
b100111101100 2
b101111001000010 <
b101111001000010 4
b101111001000010 7
b101111001000010 8
b101111001000010 9
b100011010110001100 C
b100011010110001100 ;
b100011010110001100 >
b100011010110001100 ?
b100011010110001100 @
b10110001110010011 J
b10110001110010011 B
b10110001110010011 E
b10110001110010011 F
b10110001110010011 G
b100000101101110000 I
b100000101101110000 L
b100000101101110000 M
b1 )
b1 Q
b1 R
1!
#1420
0!
#1430
b110110111100000011 S
b110110111100000011 *
b1111111 ]
b1111111 ^
b1111111 _
b11110110000100 Z
b11110100000101 [
b11110100000101 \
b100011111111110111 W
b100000000111110100 X
b100000000111110100 Y
b111111110111010100 T
b10111111101011011 U
b10111111101011011 V
1%
1(
b110000100000100010 H
b110000100000100010 K
b100010110011101101 A
b100010110011101101 D
b101111101111111100 :
b101111101111111100 =
b111001010011001 3
b111001010011001 6
b101011101010 ,
b101011101010 /
b10 )
b10 Q
b10 R
b110110111100000011 I
b110110111100000011 L
b110110111100000011 M
b111001100100011111 J
b111001100100011111 B
b111001100100011111 E
b111001100100011111 F
b111001100100011111 G
b101001001111001110 C
b101001001111001110 ;
b101001001111001110 >
b101001001111001110 ?
b101001001111001110 @
b110100000101110 <
b110100000101110 4
b110100000101110 7
b110100000101110 8
b110100000101110 9
b101001101011 5
b101001101011 -
b101001101011 0
b101001101011 1
b101001101011 2
1!
#1440
0!
#1450
b101101101001 ,
b101101101001 /
b111110110000011 3
b111110110000011 6
b110110111010010101 :
b110110111010010101 =
b10010100011101001 A
b10010100011101001 D
b10011010100001111 H
b10011010100001111 K
b101011101010 5
b101011101010 -
b101011101010 0
b101011101010 1
b101011101010 2
b111001010011001 <
b111001010011001 4
b111001010011001 7
b111001010011001 8
b111001010011001 9
b101111101111111100 C
b101111101111111100 ;
b101111101111111100 >
b101111101111111100 ?
b101111101111111100 @
b100010110011101101 J
b100010110011101101 B
b100010110011101101 E
b100010110011101101 F
b100010110011101101 G
b110000100000100010 I
b110000100000100010 L
b110000100000100010 M
b11 )
b11 Q
b11 R
1!
#1460
0!
#1470
0%
0(
b100101110111111000 H
b100101110111111000 K
b1001011101111110 A
b1001011101111110 D
b111110110000011000 :
b111110110000011000 =
b1000100011101100 3
b1000100011101100 6
b101111101000 ,
b101111101000 /
b0 )
b0 Q
b0 R
b10011010100001111 I
b10011010100001111 L
b10011010100001111 M
b10010100011101001 J
b10010100011101001 B
b10010100011101001 E
b10010100011101001 F
b10010100011101001 G
b110110111010010101 C
b110110111010010101 ;
b110110111010010101 >
b110110111010010101 ?
b110110111010010101 @
b111110110000011 <
b111110110000011 4
b111110110000011 7
b111110110000011 8
b111110110000011 9
b101101101001 5
b101101101001 -
b101101101001 0
b101101101001 1
b101101101001 2
1!
#1480
0!
#1490
b110001100111 ,
b110001100111 /
b1001010011010100 3
b1001010011010100 6
b111010100000100 :
b111010100000100 =
b1000001110010110 A
b1000001110010110 D
b101111010101110110 H
b101111010101110110 K
b101111101000 5
b101111101000 -
b101111101000 0
b101111101000 1
b101111101000 2
b1000100011101100 <
b1000100011101100 4
b1000100011101100 7
b1000100011101100 8
b1000100011101100 9
b111110110000011000 C
b111110110000011000 ;
b111110110000011000 >
b111110110000011000 ?
b111110110000011000 @
b1001011101111110 J
b1001011101111110 B
b1001011101111110 E
b1001011101111110 F
b1001011101111110 G
b100101110111111000 I
b100101110111111000 L
b100101110111111000 M
b1 )
b1 Q
b1 R
1!
#1500
0!
#1510
b101111010101110110 S
b110110111100000011 T
b110111000100101111 U
b110111000100101111 V
b10111111101011011 W
b110011111101100100 X
b110011111101100100 Y
b100000000111110100 Z
b11100010001110000 [
b11100010001110000 \
b11110100000101 ]
b11110010000110 ^
b11110010000110 _
b1111111 `
b1111111 &
b1111111 a
b101111010101110110 *
1%
1(
b110111100100001100 H
b110111100100001100 K
b1111100010011010 A
b1111100010011010 D
b10000100111011000 :
b10000100111011000 =
b1010000100111011 3
b1010000100111011 6
b110011100110 ,
b110011100110 /
b10 )
b10 Q
b10 R
b101111010101110110 I
b101111010101110110 L
b101111010101110110 M
b1000001110010110 J
b1000001110010110 B
b1000001110010110 E
b1000001110010110 F
b1000001110010110 G
b111010100000100 C
b111010100000100 ;
b111010100000100 >
b111010100000100 ?
b111010100000100 @
b1001010011010100 <
b1001010011010100 4
b1001010011010100 7
b1001010011010100 8
b1001010011010100 9
b110001100111 5
b110001100111 -
b110001100111 0
b110001100111 1
b110001100111 2
1!
#1520
0!
#1530
b110101100101 ,
b110101100101 /
b1010111000100001 3
b1010111000100001 6
b11010101100010011 :
b11010101100010011 =
b100000001001110010 A
b100000001001110010 D
b111000110100110 H
b111000110100110 K
b110011100110 5
b110011100110 -
b110011100110 0
b110011100110 1
b110011100110 2
b1010000100111011 <
b1010000100111011 4
b1010000100111011 7
b1010000100111011 8
b1010000100111011 9
b10000100111011000 C
b10000100111011000 ;
b10000100111011000 >
b10000100111011000 ?
b10000100111011000 @
b1111100010011010 J
b1111100010011010 B
b1111100010011010 E
b1111100010011010 F
b1111100010011010 G
b110111100100001100 I
b110111100100001100 L
b110111100100001100 M
b11 )
b11 Q
b11 R
1!
#1540
0!
#1550
0%
0(
b100111010000011000 H
b100111010000011000 K
b111010110110000101 A
b111010110110000101 D
b100101100100110100 :
b100101100100110100 =
b1011101110000110 3
b1011101110000110 6
b110111100100 ,
b110111100100 /
b0 )
b0 Q
b0 R
b111000110100110 I
b111000110100110 L
b111000110100110 M
b100000001001110010 J
b100000001001110010 B
b100000001001110010 E
b100000001001110010 F
b100000001001110010 G
b11010101100010011 C
b11010101100010011 ;
b11010101100010011 >
b11010101100010011 ?
b11010101100010011 @
b1010111000100001 <
b1010111000100001 4
b1010111000100001 7
b1010111000100001 8
b1010111000100001 9
b110101100101 5
b110101100101 -
b110101100101 0
b110101100101 1
b110101100101 2
1!
#1560
0!
#1570
b111001100011 ,
b111001100011 /
b1100100101101010 3
b1100100101101010 6
b110001010010111010 :
b110001010010111010 =
b100000011010111001 A
b100000011010111001 D
b100010000110011101 H
b100010000110011101 K
b110111100100 5
b110111100100 -
b110111100100 0
b110111100100 1
b110111100100 2
b1011101110000110 <
b1011101110000110 4
b1011101110000110 7
b1011101110000110 8
b1011101110000110 9
b100101100100110100 C
b100101100100110100 ;
b100101100100110100 >
b100101100100110100 ?
b100101100100110100 @
b111010110110000101 J
b111010110110000101 B
b111010110110000101 E
b111010110110000101 F
b111010110110000101 G
b100111010000011000 I
b100111010000011000 L
b100111010000011000 M
b1 )
b1 Q
b1 R
1!
#1580
0!
#1590
b100010000110011101 S
b100010000110011101 *
b11110010000110 `
b11110000000111 &
b11110000000111 a
b11100010001110000 ]
b11000011101101011 ^
b11000011101101011 _
b110011111101100100 Z
b10011110101110000 [
b10011110101110000 \
b110111000100101111 W
b11111000111010100 X
b11111000111010100 Y
b101111010101110110 T
b111000011001110011 U
b111000011001110011 V
1%
1(
b10100001010110 H
b10100001010110 K
b10001101101110011 A
b10001101101110011 D
b111101111000100100 :
b111101111000100100 =
b1101011111001101 3
b1101011111001101 6
b111011100010 ,
b111011100010 /
b10 )
b10 Q
b10 R
b100010000110011101 I
b100010000110011101 L
b100010000110011101 M
b100000011010111001 J
b100000011010111001 B
b100000011010111001 E
b100000011010111001 F
b100000011010111001 G
b110001010010111010 C
b110001010010111010 ;
b110001010010111010 >
b110001010010111010 ?
b110001010010111010 @
b1100100101101010 <
b1100100101101010 4
b1100100101101010 7
b1100100101101010 8
b1100100101101010 9
b111001100011 5
b111001100011 -
b111001100011 0
b111001100011 1
b111001100011 2
1!
#1600
0!
#1610
b111101100001 ,
b111101100001 /
b1110011010101111 3
b1110011010101111 6
b1011010111110001 :
b1011010111110001 =
b1111100110010111 A
b1111100110010111 D
b10100001111001001 H
b10100001111001001 K
b111011100010 5
b111011100010 -
b111011100010 0
b111011100010 1
b111011100010 2
b1101011111001101 <
b1101011111001101 4
b1101011111001101 7
b1101011111001101 8
b1101011111001101 9
b111101111000100100 C
b111101111000100100 ;
b111101111000100100 >
b111101111000100100 ?
b111101111000100100 @
b10001101101110011 J
b10001101101110011 B
b10001101101110011 E
b10001101101110011 F
b10001101101110011 G
b10100001010110 I
b10100001010110 L
b10100001010110 M
b11 )
b11 Q
b11 R
1!
#1620
0!
