Firmware/cic/out.vcd
$date
	Tue Nov 09 11:29:11 2021
$end
$version
	Icarus Verilog
$end
$timescale
	1ns
$end
$scope module cic_tb $end
$scope module DUT $end
$var wire 1 ! i_clk $end
$var wire 2 " i_data [1:0] $end
$var wire 1 # i_en $end
$var wire 1 $ i_rst $end
$var wire 1 % o_clk $end
$var wire 8 & o_data [7:0] $end
$var wire 8 ' i_data_ext [7:0] $end
$var wire 1 ( dec_clk $end
$var wire 6 ) dec [5:0] $end
$var reg 9 * test [8:0] $end
$scope begin genblk1[0] $end
$scope module int $end
$var wire 1 ! i_clk $end
$var wire 1 # i_en $end
$var wire 1 $ i_rst $end
$var wire 8 + i_x [7:0] $end
$var wire 8 , x_int [7:0] $end
$var wire 8 - o_y [7:0] $end
$var wire 8 . i_x_ext [7:0] $end
$scope module zinv $end
$var wire 1 ! i_clk $end
$var wire 8 / i_d [7:0] $end
$var wire 1 $ i_rst $end
$var wire 8 0 o_q [7:0] $end
$var reg 8 1 q [7:0] $end
$upscope $end
$upscope $end
$upscope $end
$scope begin genblk3 $end
$scope module dec_cnt $end
$var wire 1 ! i_clk $end
$var wire 6 2 i_data [5:0] $end
$var wire 1 # i_en $end
$var wire 1 3 i_ld $end
$var wire 1 $ i_rst $end
$var wire 1 4 i_up $end
$var wire 6 5 o_data [5:0] $end
$var reg 6 6 next [5:0] $end
$upscope $end
$upscope $end
$scope begin genblk4[0] $end
$scope module comb $end
$var wire 1 ( i_clk $end
$var wire 8 7 i_data [7:0] $end
$var wire 1 # i_en $end
$var wire 1 $ i_rst $end
$var reg 8 8 delay [7:0] $end
$var reg 8 9 o_data [7:0] $end
$upscope $end
$upscope $end
$upscope $end
$upscope $end
$enddefinitions $end
#0
$dumpvars
bx 9
b0 8
bx 7
b0 6
b0 5
14
03
bz 2
b0 1
b0 0
b1 /
b1 .
b0 -
b1 ,
b1 +
bx *
b0 )
0(
b1 '
bx &
0%
1$
1#
b1 "
0!
$end
#10
1!
#20
b11111111 ,
b11111111 /
b11111111 .
b11111111 +
b11111111 '
b11 "
0!
#30
1!
#40
b1 ,
b1 /
b1 .
b1 +
b1 '
b1 "
0!
0$
#50
b10 ,
b10 /
b1 -
b1 0
b1 1
b1 )
b1 5
b1 6
1!
#60
b0 ,
b0 /
b11111111 .
b11111111 +
b11111111 '
b11 "
0!
#70
b11111111 ,
b11111111 /
b10 )
b10 5
b10 6
b0 -
b0 0
b0 1
1!
#80
b1 ,
b1 /
b1 .
b1 +
b1 '
b1 "
0!
#90
b10 ,
b10 /
b1 -
b1 0
b1 1
b11 )
b11 5
b11 6
1!
#100
b0 ,
b0 /
b11111111 .
b11111111 +
b11111111 '
b11 "
0!
#110
b11111111 ,
b11111111 /
b100 )
b100 5
b100 6
b0 -
b0 0
b0 1
1!
#120
b1 ,
b1 /
b1 .
b1 +
b1 '
b1 "
0!
#130
b10 ,
b10 /
b1 -
b1 0
b1 1
b101 )
b101 5
b101 6
1!
#140
b0 ,
b0 /
b11111111 .
b11111111 +
b11111111 '
b11 "
0!
#150
b11111111 ,
b11111111 /
b110 )
b110 5
b110 6
b0 -
b0 0
b0 1
1!
#160
b1 ,
b1 /
b1 .
b1 +
b1 '
b1 "
0!
#170
b10 ,
b10 /
b1 -
b1 0
b1 1
b111 )
b111 5
b111 6
1!
#180
b0 ,
b0 /
b11111111 .
b11111111 +
b11111111 '
b11 "
0!
#190
b11111111 ,
b11111111 /
b1000 )
b1000 5
b1000 6
b0 -
b0 0
b0 1
1!
#200
b1 ,
b1 /
b1 .
b1 +
b1 '
b1 "
0!
#210
b10 ,
b10 /
b1 -
b1 0
b1 1
b1001 )
b1001 5
b1001 6
1!
#220
b0 ,
b0 /
b11111111 .
b11111111 +
b11111111 '
b11 "
0!
#230
b11111111 ,
b11111111 /
b1010 )
b1010 5
b1010 6
b0 -
b0 0
b0 1
1!
#240
b1 ,
b1 /
b1 .
b1 +
b1 '
b1 "
0!
#250
b10 ,
b10 /
b1 -
b1 0
b1 1
b1011 )
b1011 5
b1011 6
1!
#260
b0 ,
b0 /
b11111111 .
b11111111 +
b11111111 '
b11 "
0!
#270
b11111111 ,
b11111111 /
b1100 )
b1100 5
b1100 6
b0 -
b0 0
b0 1
1!
#280
b1 ,
b1 /
b1 .
b1 +
b1 '
b1 "
0!
#290
b10 ,
b10 /
b1 -
b1 0
b1 1
b1101 )
b1101 5
b1101 6
1!
#300
b0 ,
b0 /
b11111111 .
b11111111 +
b11111111 '
b11 "
0!
#310
b11111111 ,
b11111111 /
b1110 )
b1110 5
b1110 6
b0 -
b0 0
b0 1
1!
#320
b1 ,
b1 /
b1 .
b1 +
b1 '
b1 "
0!
#330
b10 ,
b10 /
b1 -
b1 0
b1 1
b1111 )
b1111 5
b1111 6
1!
#340
b0 ,
b0 /
b11111111 .
b11111111 +
b11111111 '
b11 "
0!
#350
b11111111 ,
b11111111 /
b10000 )
b10000 5
b10000 6
b0 -
b0 0
b0 1
1!
#360
b1 ,
b1 /
b1 .
b1 +
b1 '
b1 "
0!
#370
b10 ,
b10 /
b1 -
b1 0
b1 1
b10001 )
b10001 5
b10001 6
1!
#380
b0 ,
b0 /
b11111111 .
b11111111 +
b11111111 '
b11 "
0!
#390
b11111111 ,
b11111111 /
b10010 )
b10010 5
b10010 6
b0 -
b0 0
b0 1
1!
#400
b1 ,
b1 /
b1 .
b1 +
b1 '
b1 "
0!
#410
b10 ,
b10 /
b1 -
b1 0
b1 1
b10011 )
b10011 5
b10011 6
1!
#420
b0 ,
b0 /
b11111111 .
b11111111 +
b11111111 '
b11 "
0!
#430
b11111111 ,
b11111111 /
b10100 )
b10100 5
b10100 6
b0 -
b0 0
b0 1
1!
#440
b1 ,
b1 /
b1 .
b1 +
b1 '
b1 "
0!
#450
b10 ,
b10 /
b1 -
b1 0
b1 1
b10101 )
b10101 5
b10101 6
1!
#460
b0 ,
b0 /
b11111111 .
b11111111 +
b11111111 '
b11 "
0!
#470
b11111111 ,
b11111111 /
b10110 )
b10110 5
b10110 6
b0 -
b0 0
b0 1
1!
#480
b1 ,
b1 /
b1 .
b1 +
b1 '
b1 "
0!
#490
b10 ,
b10 /
b1 -
b1 0
b1 1
b10111 )
b10111 5
b10111 6
1!
#500
b0 ,
b0 /
b11111111 .
b11111111 +
b11111111 '
b11 "
0!
#510
b11111111 ,
b11111111 /
b11000 )
b11000 5
b11000 6
b0 -
b0 0
b0 1
1!
#520
b1 ,
b1 /
b1 .
b1 +
b1 '
b1 "
0!
#530
b10 ,
b10 /
b1 -
b1 0
b1 1
b11001 )
b11001 5
b11001 6
1!
#540
b0 ,
b0 /
b11111111 .
b11111111 +
b11111111 '
b11 "
0!
#550
b11111111 ,
b11111111 /
b11010 )
b11010 5
b11010 6
b0 -
b0 0
b0 1
1!
#560
b1 ,
b1 /
b1 .
b1 +
b1 '
b1 "
0!
#570
b10 ,
b10 /
b1 -
b1 0
b1 1
b11011 )
b11011 5
b11011 6
1!
#580
b0 ,
b0 /
b11111111 .
b11111111 +
b11111111 '
b11 "
0!
#590
b11111111 ,
b11111111 /
b11100 )
b11100 5
b11100 6
b0 -
b0 0
b0 1
1!
#600
b1 ,
b1 /
b1 .
b1 +
b1 '
b1 "
0!
#610
b10 ,
b10 /
b1 -
b1 0
b1 1
b11101 )
b11101 5
b11101 6
1!
#620
b0 ,
b0 /
b11111111 .
b11111111 +
b11111111 '
b11 "
0!
#630
b11111111 ,
b11111111 /
b11110 )
b11110 5
b11110 6
b0 -
b0 0
b0 1
1!
#640
b1 ,
b1 /
b1 .
b1 +
b1 '
b1 "
0!
#650
b10 ,
b10 /
b1 -
b1 0
b1 1
b11111 )
b11111 5
b11111 6
1!
#660
b0 ,
b0 /
b11111111 .
b11111111 +
b11111111 '
b11 "
0!
#670
b0 7
bx 8
b0 *
1%
1(
b11111111 ,
b11111111 /
b100000 )
b100000 5
b100000 6
b0 -
b0 0
b0 1
1!
#680
b1 ,
b1 /
b1 .
b1 +
b1 '
b1 "
0!
#690
b10 ,
b10 /
b1 -
b1 0
b1 1
b100001 )
b100001 5
b100001 6
1!
#700
b0 ,
b0 /
b11111111 .
b11111111 +
b11111111 '
b11 "
0!
#710
b11111111 ,
b11111111 /
b100010 )
b100010 5
b100010 6
b0 -
b0 0
b0 1
1!
#720
b1 ,
b1 /
b1 .
b1 +
b1 '
b1 "
0!
#730
b10 ,
b10 /
b1 -
b1 0
b1 1
b100011 )
b100011 5
b100011 6
1!
#740
b0 ,
b0 /
b11111111 .
b11111111 +
b11111111 '
b11 "
0!
#750
b11111111 ,
b11111111 /
b100100 )
b100100 5
b100100 6
b0 -
b0 0
b0 1
1!
#760
b1 ,
b1 /
b1 .
b1 +
b1 '
b1 "
0!
#770
b10 ,
b10 /
b1 -
b1 0
b1 1
b100101 )
b100101 5
b100101 6
1!
#780
b0 ,
b0 /
b11111111 .
b11111111 +
b11111111 '
b11 "
0!
#790
b11111111 ,
b11111111 /
b100110 )
b100110 5
b100110 6
b0 -
b0 0
b0 1
1!
#800
b1 ,
b1 /
b1 .
b1 +
b1 '
b1 "
0!
#810
b10 ,
b10 /
b1 -
b1 0
b1 1
b100111 )
b100111 5
b100111 6
1!
#820
b0 ,
b0 /
b11111111 .
b11111111 +
b11111111 '
b11 "
0!
#830
b11111111 ,
b11111111 /
b101000 )
b101000 5
b101000 6
b0 -
b0 0
b0 1
1!
#840
b1 ,
b1 /
b1 .
b1 +
b1 '
b1 "
0!
#850
b10 ,
b10 /
b1 -
b1 0
b1 1
b101001 )
b101001 5
b101001 6
1!
#860
b0 ,
b0 /
b11111111 .
b11111111 +
b11111111 '
b11 "
0!
#870
b11111111 ,
b11111111 /
b101010 )
b101010 5
b101010 6
b0 -
b0 0
b0 1
1!
#880
b1 ,
b1 /
b1 .
b1 +
b1 '
b1 "
0!
#890
b10 ,
b10 /
b1 -
b1 0
b1 1
b101011 )
b101011 5
b101011 6
1!
#900
b0 ,
b0 /
b11111111 .
b11111111 +
b11111111 '
b11 "
0!
#910
b11111111 ,
b11111111 /
b101100 )
b101100 5
b101100 6
b0 -
b0 0
b0 1
1!
#920
b1 ,
b1 /
b1 .
b1 +
b1 '
b1 "
0!
#930
b10 ,
b10 /
b1 -
b1 0
b1 1
b101101 )
b101101 5
b101101 6
1!
#940
b0 ,
b0 /
b11111111 .
b11111111 +
b11111111 '
b11 "
0!
#950
b11111111 ,
b11111111 /
b101110 )
b101110 5
b101110 6
b0 -
b0 0
b0 1
1!
#960
b1 ,
b1 /
b1 .
b1 +
b1 '
b1 "
0!
#970
b10 ,
b10 /
b1 -
b1 0
b1 1
b101111 )
b101111 5
b101111 6
1!
#980
b0 ,
b0 /
b11111111 .
b11111111 +
b11111111 '
b11 "
0!
#990
b11111111 ,
b11111111 /
b110000 )
b110000 5
b110000 6
b0 -
b0 0
b0 1
1!
#1000
b1 ,
b1 /
b1 .
b1 +
b1 '
b1 "
0!
#1010
b10 ,
b10 /
b1 -
b1 0
b1 1
b110001 )
b110001 5
b110001 6
1!
#1020
b0 ,
b0 /
b11111111 .
b11111111 +
b11111111 '
b11 "
0!
#1030
b11111111 ,
b11111111 /
b110010 )
b110010 5
b110010 6
b0 -
b0 0
b0 1
1!
#1040
b1 ,
b1 /
b1 .
b1 +
b1 '
b1 "
0!
#1050
b10 ,
b10 /
b1 -
b1 0
b1 1
b110011 )
b110011 5
b110011 6
1!
#1060
b0 ,
b0 /
b11111111 .
b11111111 +
b11111111 '
b11 "
0!
#1070
b11111111 ,
b11111111 /
b110100 )
b110100 5
b110100 6
b0 -
b0 0
b0 1
1!
#1080
b1 ,
b1 /
b1 .
b1 +
b1 '
b1 "
0!
#1090
b10 ,
b10 /
b1 -
b1 0
b1 1
b110101 )
b110101 5
b110101 6
1!
#1100
b0 ,
b0 /
b11111111 .
b11111111 +
b11111111 '
b11 "
0!
#1110
b11111111 ,
b11111111 /
b110110 )
b110110 5
b110110 6
b0 -
b0 0
b0 1
1!
#1120
b1 ,
b1 /
b1 .
b1 +
b1 '
b1 "
0!
#1130
b10 ,
b10 /
b1 -
b1 0
b1 1
b110111 )
b110111 5
b110111 6
1!
#1140
b0 ,
b0 /
b11111111 .
b11111111 +
b11111111 '
b11 "
0!
#1150
b11111111 ,
b11111111 /
b111000 )
b111000 5
b111000 6
b0 -
b0 0
b0 1
1!
#1160
b1 ,
b1 /
b1 .
b1 +
b1 '
b1 "
0!
#1170
b10 ,
b10 /
b1 -
b1 0
b1 1
b111001 )
b111001 5
b111001 6
1!
#1180
b0 ,
b0 /
b11111111 .
b11111111 +
b11111111 '
b11 "
0!
#1190
b11111111 ,
b11111111 /
b111010 )
b111010 5
b111010 6
b0 -
b0 0
b0 1
1!
#1200
b1 ,
b1 /
b1 .
b1 +
b1 '
b1 "
0!
#1210
b10 ,
b10 /
b1 -
b1 0
b1 1
b111011 )
b111011 5
b111011 6
1!
#1220
b0 ,
b0 /
b11111111 .
b11111111 +
b11111111 '
b11 "
0!
#1230
b11111111 ,
b11111111 /
b111100 )
b111100 5
b111100 6
b0 -
b0 0
b0 1
1!
#1240
b1 ,
b1 /
b1 .
b1 +
b1 '
b1 "
0!
#1250
b10 ,
b10 /
b1 -
b1 0
b1 1
b111101 )
b111101 5
b111101 6
1!
#1260
b0 ,
b0 /
b11111111 .
b11111111 +
b11111111 '
b11 "
0!
#1270
b11111111 ,
b11111111 /
b111110 )
b111110 5
b111110 6
b0 -
b0 0
b0 1
1!
#1280
b1 ,
b1 /
b1 .
b1 +
b1 '
b1 "
0!
#1290
b10 ,
b10 /
b1 -
b1 0
b1 1
b111111 )
b111111 5
b111111 6
1!
#1300
b0 ,
b0 /
b11111111 .
b11111111 +
b11111111 '
b11 "
0!
#1310
0%
0(
b11111111 ,
b11111111 /
b0 )
b0 5
b0 6
b0 -
b0 0
b0 1
1!
#1320
b1 ,
b1 /
b1 .
b1 +
b1 '
b1 "
0!
#1330
b10 ,
b10 /
b1 -
b1 0
b1 1
b1 )
b1 5
b1 6
1!
#1340
b0 ,
b0 /
b11111111 .
b11111111 +
b11111111 '
b11 "
0!
#1350
b11111111 ,
b11111111 /
b10 )
b10 5
b10 6
b0 -
b0 0
b0 1
1!
#1360
b1 ,
b1 /
b1 .
b1 +
b1 '
b1 "
0!
#1370
b10 ,
b10 /
b1 -
b1 0
b1 1
b11 )
b11 5
b11 6
1!
#1380
b0 ,
b0 /
b11111111 .
b11111111 +
b11111111 '
b11 "
0!
#1390
b11111111 ,
b11111111 /
b100 )
b100 5
b100 6
b0 -
b0 0
b0 1
1!
#1400
b1 ,
b1 /
b1 .
b1 +
b1 '
b1 "
0!
#1410
b10 ,
b10 /
b1 -
b1 0
b1 1
b101 )
b101 5
b101 6
1!
#1420
b0 ,
b0 /
b11111111 .
b11111111 +
b11111111 '
b11 "
0!
#1430
b11111111 ,
b11111111 /
b110 )
b110 5
b110 6
b0 -
b0 0
b0 1
1!
#1440
b1 ,
b1 /
b1 .
b1 +
b1 '
b1 "
0!
#1450
b10 ,
b10 /
b1 -
b1 0
b1 1
b111 )
b111 5
b111 6
1!
#1460
b0 ,
b0 /
b11111111 .
b11111111 +
b11111111 '
b11 "
0!
#1470
b11111111 ,
b11111111 /
b1000 )
b1000 5
b1000 6
b0 -
b0 0
b0 1
1!
#1480
b1 ,
b1 /
b1 .
b1 +
b1 '
b1 "
0!
#1490
b10 ,
b10 /
b1 -
b1 0
b1 1
b1001 )
b1001 5
b1001 6
1!
#1500
b0 ,
b0 /
b11111111 .
b11111111 +
b11111111 '
b11 "
0!
#1510
b11111111 ,
b11111111 /
b1010 )
b1010 5
b1010 6
b0 -
b0 0
b0 1
1!
#1520
b1 ,
b1 /
b1 .
b1 +
b1 '
b1 "
0!
#1530
b10 ,
b10 /
b1 -
b1 0
b1 1
b1011 )
b1011 5
b1011 6
1!
#1540
b0 ,
b0 /
b11111111 .
b11111111 +
b11111111 '
b11 "
0!
#1550
b11111111 ,
b11111111 /
b1100 )
b1100 5
b1100 6
b0 -
b0 0
b0 1
1!
#1560
b1 ,
b1 /
b1 .
b1 +
b1 '
b1 "
0!
#1570
b10 ,
b10 /
b1 -
b1 0
b1 1
b1101 )
b1101 5
b1101 6
1!
#1580
b0 ,
b0 /
b11111111 .
b11111111 +
b11111111 '
b11 "
0!
#1590
b11111111 ,
b11111111 /
b1110 )
b1110 5
b1110 6
b0 -
b0 0
b0 1
1!
#1600
b1 ,
b1 /
b1 .
b1 +
b1 '
b1 "
0!
#1610
b10 ,
b10 /
b1 -
b1 0
b1 1
b1111 )
b1111 5
b1111 6
1!
#1620
b0 ,
b0 /
b11111111 .
b11111111 +
b11111111 '
b11 "
0!
#1630
b11111111 ,
b11111111 /
b10000 )
b10000 5
b10000 6
b0 -
b0 0
b0 1
1!
#1640
b1 ,
b1 /
b1 .
b1 +
b1 '
b1 "
0!
#1650
b10 ,
b10 /
b1 -
b1 0
b1 1
b10001 )
b10001 5
b10001 6
1!
#1660
b0 ,
b0 /
b11111111 .
b11111111 +
b11111111 '
b11 "
0!
#1670
b11111111 ,
b11111111 /
b10010 )
b10010 5
b10010 6
b0 -
b0 0
b0 1
1!
#1680
b1 ,
b1 /
b1 .
b1 +
b1 '
b1 "
0!
#1690
b10 ,
b10 /
b1 -
b1 0
b1 1
b10011 )
b10011 5
b10011 6
1!
#1700
b0 ,
b0 /
b11111111 .
b11111111 +
b11111111 '
b11 "
0!
#1710
b11111111 ,
b11111111 /
b10100 )
b10100 5
b10100 6
b0 -
b0 0
b0 1
1!
#1720
b1 ,
b1 /
b1 .
b1 +
b1 '
b1 "
0!
#1730
b10 ,
b10 /
b1 -
b1 0
b1 1
b10101 )
b10101 5
b10101 6
1!
#1740
b0 ,
b0 /
b11111111 .
b11111111 +
b11111111 '
b11 "
0!
#1750
b11111111 ,
b11111111 /
b10110 )
b10110 5
b10110 6
b0 -
b0 0
b0 1
1!
#1760
b1 ,
b1 /
b1 .
b1 +
b1 '
b1 "
0!
#1770
b10 ,
b10 /
b1 -
b1 0
b1 1
b10111 )
b10111 5
b10111 6
1!
#1780
b0 ,
b0 /
b11111111 .
b11111111 +
b11111111 '
b11 "
0!
#1790
b11111111 ,
b11111111 /
b11000 )
b11000 5
b11000 6
b0 -
b0 0
b0 1
1!
#1800
b1 ,
b1 /
b1 .
b1 +
b1 '
b1 "
0!
#1810
b10 ,
b10 /
b1 -
b1 0
b1 1
b11001 )
b11001 5
b11001 6
1!
#1820
b0 ,
b0 /
b11111111 .
b11111111 +
b11111111 '
b11 "
0!
#1830
b11111111 ,
b11111111 /
b11010 )
b11010 5
b11010 6
b0 -
b0 0
b0 1
1!
#1840
b1 ,
b1 /
b1 .
b1 +
b1 '
b1 "
0!
#1850
b10 ,
b10 /
b1 -
b1 0
b1 1
b11011 )
b11011 5
b11011 6
1!
#1860
b0 ,
b0 /
b11111111 .
b11111111 +
b11111111 '
b11 "
0!
#1870
b11111111 ,
b11111111 /
b11100 )
b11100 5
b11100 6
b0 -
b0 0
b0 1
1!
#1880
b1 ,
b1 /
b1 .
b1 +
b1 '
b1 "
0!
#1890
b10 ,
b10 /
b1 -
b1 0
b1 1
b11101 )
b11101 5
b11101 6
1!
#1900
b0 ,
b0 /
b11111111 .
b11111111 +
b11111111 '
b11 "
0!
#1910
b11111111 ,
b11111111 /
b11110 )
b11110 5
b11110 6
b0 -
b0 0
b0 1
1!
#1920
b1 ,
b1 /
b1 .
b1 +
b1 '
b1 "
0!
#1930
b10 ,
b10 /
b1 -
b1 0
b1 1
b11111 )
b11111 5
b11111 6
1!
#1940
b0 ,
b0 /
b11111111 .
b11111111 +
b11111111 '
b11 "
0!
#1950
b0 8
1%
1(
b11111111 ,
b11111111 /
b100000 )
b100000 5
b100000 6
b0 -
b0 0
b0 1
1!
#1960
b1 ,
b1 /
b1 .
b1 +
b1 '
b1 "
0!
#1970
b10 ,
b10 /
b1 -
b1 0
b1 1
b100001 )
b100001 5
b100001 6
1!
#1980
b0 ,
b0 /
b11111111 .
b11111111 +
b11111111 '
b11 "
0!
#1990
b11111111 ,
b11111111 /
b100010 )
b100010 5
b100010 6
b0 -
b0 0
b0 1
1!
#2000
b1 ,
b1 /
b1 .
b1 +
b1 '
b1 "
0!
#2010
b10 ,
b10 /
b1 -
b1 0
b1 1
b100011 )
b100011 5
b100011 6
1!
#2020
b0 ,
b0 /
b11111111 .
b11111111 +
b11111111 '
b11 "
0!
#2030
b11111111 ,
b11111111 /
b100100 )
b100100 5
b100100 6
b0 -
b0 0
b0 1
1!
#2040
b1 ,
b1 /
b1 .
b1 +
b1 '
b1 "
0!
#2050
b10 ,
b10 /
b1 -
b1 0
b1 1
b100101 )
b100101 5
b100101 6
1!
#2060
b0 ,
b0 /
b11111111 .
b11111111 +
b11111111 '
b11 "
0!
#2070
b11111111 ,
b11111111 /
b100110 )
b100110 5
b100110 6
b0 -
b0 0
b0 1
1!
#2080
b1 ,
b1 /
b1 .
b1 +
b1 '
b1 "
0!
#2090
b10 ,
b10 /
b1 -
b1 0
b1 1
b100111 )
b100111 5
b100111 6
1!
#2100
b0 ,
b0 /
b11111111 .
b11111111 +
b11111111 '
b11 "
0!
#2110
b11111111 ,
b11111111 /
b101000 )
b101000 5
b101000 6
b0 -
b0 0
b0 1
1!
#2120
b1 ,
b1 /
b1 .
b1 +
b1 '
b1 "
0!
#2130
b10 ,
b10 /
b1 -
b1 0
b1 1
b101001 )
b101001 5
b101001 6
1!
#2140
b0 ,
b0 /
b11111111 .
b11111111 +
b11111111 '
b11 "
0!
#2150
b11111111 ,
b11111111 /
b101010 )
b101010 5
b101010 6
b0 -
b0 0
b0 1
1!
#2160
b1 ,
b1 /
b1 .
b1 +
b1 '
b1 "
0!
#2170
b10 ,
b10 /
b1 -
b1 0
b1 1
b101011 )
b101011 5
b101011 6
1!
#2180
b0 ,
b0 /
b11111111 .
b11111111 +
b11111111 '
b11 "
0!
#2190
b11111111 ,
b11111111 /
b101100 )
b101100 5
b101100 6
b0 -
b0 0
b0 1
1!
#2200
b1 ,
b1 /
b1 .
b1 +
b1 '
b1 "
0!
#2210
b10 ,
b10 /
b1 -
b1 0
b1 1
b101101 )
b101101 5
b101101 6
1!
#2220
b0 ,
b0 /
b11111111 .
b11111111 +
b11111111 '
b11 "
0!
#2230
b11111111 ,
b11111111 /
b101110 )
b101110 5
b101110 6
b0 -
b0 0
b0 1
1!
#2240
b1 ,
b1 /
b1 .
b1 +
b1 '
b1 "
0!
#2250
b10 ,
b10 /
b1 -
b1 0
b1 1
b101111 )
b101111 5
b101111 6
1!
#2260
b0 ,
b0 /
b11111111 .
b11111111 +
b11111111 '
b11 "
0!
#2270
b11111111 ,
b11111111 /
b110000 )
b110000 5
b110000 6
b0 -
b0 0
b0 1
1!
#2280
b1 ,
b1 /
b1 .
b1 +
b1 '
b1 "
0!
#2290
b10 ,
b10 /
b1 -
b1 0
b1 1
b110001 )
b110001 5
b110001 6
1!
#2300
b0 ,
b0 /
b11111111 .
b11111111 +
b11111111 '
b11 "
0!
#2310
b11111111 ,
b11111111 /
b110010 )
b110010 5
b110010 6
b0 -
b0 0
b0 1
1!
#2320
b1 ,
b1 /
b1 .
b1 +
b1 '
b1 "
0!
#2330
b10 ,
b10 /
b1 -
b1 0
b1 1
b110011 )
b110011 5
b110011 6
1!
#2340
b0 ,
b0 /
b11111111 .
b11111111 +
b11111111 '
b11 "
0!
#2350
b11111111 ,
b11111111 /
b110100 )
b110100 5
b110100 6
b0 -
b0 0
b0 1
1!
#2360
b1 ,
b1 /
b1 .
b1 +
b1 '
b1 "
0!
#2370
b10 ,
b10 /
b1 -
b1 0
b1 1
b110101 )
b110101 5
b110101 6
1!
#2380
b0 ,
b0 /
b11111111 .
b11111111 +
b11111111 '
b11 "
0!
#2390
b11111111 ,
b11111111 /
b110110 )
b110110 5
b110110 6
b0 -
b0 0
b0 1
1!
#2400
b1 ,
b1 /
b1 .
b1 +
b1 '
b1 "
0!
#2410
b10 ,
b10 /
b1 -
b1 0
b1 1
b110111 )
b110111 5
b110111 6
1!
#2420
b0 ,
b0 /
b11111111 .
b11111111 +
b11111111 '
b11 "
0!
#2430
b11111111 ,
b11111111 /
b111000 )
b111000 5
b111000 6
b0 -
b0 0
b0 1
1!
#2440
b1 ,
b1 /
b1 .
b1 +
b1 '
b1 "
0!
#2450
b10 ,
b10 /
b1 -
b1 0
b1 1
b111001 )
b111001 5
b111001 6
1!
#2460
b0 ,
b0 /
b11111111 .
b11111111 +
b11111111 '
b11 "
0!
#2470
b11111111 ,
b11111111 /
b111010 )
b111010 5
b111010 6
b0 -
b0 0
b0 1
1!
#2480
b1 ,
b1 /
b1 .
b1 +
b1 '
b1 "
0!
#2490
b10 ,
b10 /
b1 -
b1 0
b1 1
b111011 )
b111011 5
b111011 6
1!
#2500
b0 ,
b0 /
b11111111 .
b11111111 +
b11111111 '
b11 "
0!
#2510
b11111111 ,
b11111111 /
b111100 )
b111100 5
b111100 6
b0 -
b0 0
b0 1
1!
#2520
b1 ,
b1 /
b1 .
b1 +
b1 '
b1 "
0!
#2530
b10 ,
b10 /
b1 -
b1 0
b1 1
b111101 )
b111101 5
b111101 6
1!
#2540
b0 ,
b0 /
b11111111 .
b11111111 +
b11111111 '
b11 "
0!
#2550
b11111111 ,
b11111111 /
b111110 )
b111110 5
b111110 6
b0 -
b0 0
b0 1
1!
#2560
b1 ,
b1 /
b1 .
b1 +
b1 '
b1 "
0!
#2570
b10 ,
b10 /
b1 -
b1 0
b1 1
b111111 )
b111111 5
b111111 6
1!
#2580
b0 ,
b0 /
b11111111 .
b11111111 +
b11111111 '
b11 "
0!
#2590
0%
0(
b11111111 ,
b11111111 /
b0 )
b0 5
b0 6
b0 -
b0 0
b0 1
1!
#2600
b1 ,
b1 /
b1 .
b1 +
b1 '
b1 "
0!
#2610
b10 ,
b10 /
b1 -
b1 0
b1 1
b1 )
b1 5
b1 6
1!
#2620
b0 ,
b0 /
b11111111 .
b11111111 +
b11111111 '
b11 "
0!
#2630
b11111111 ,
b11111111 /
b10 )
b10 5
b10 6
b0 -
b0 0
b0 1
1!
#2640
b1 ,
b1 /
b1 .
b1 +
b1 '
b1 "
0!
#2650
b10 ,
b10 /
b1 -
b1 0
b1 1
b11 )
b11 5
b11 6
1!
#2660
b0 ,
b0 /
b11111111 .
b11111111 +
b11111111 '
b11 "
0!
#2670
b11111111 ,
b11111111 /
b100 )
b100 5
b100 6
b0 -
b0 0
b0 1
1!
#2680
b1 ,
b1 /
b1 .
b1 +
b1 '
b1 "
0!
#2690
b10 ,
b10 /
b1 -
b1 0
b1 1
b101 )
b101 5
b101 6
1!
#2700
b0 ,
b0 /
b11111111 .
b11111111 +
b11111111 '
b11 "
0!
#2710
b11111111 ,
b11111111 /
b110 )
b110 5
b110 6
b0 -
b0 0
b0 1
1!
#2720
b1 ,
b1 /
b1 .
b1 +
b1 '
b1 "
0!
#2730
b10 ,
b10 /
b1 -
b1 0
b1 1
b111 )
b111 5
b111 6
1!
#2740
b0 ,
b0 /
b11111111 .
b11111111 +
b11111111 '
b11 "
0!
#2750
b11111111 ,
b11111111 /
b1000 )
b1000 5
b1000 6
b0 -
b0 0
b0 1
1!
#2760
b1 ,
b1 /
b1 .
b1 +
b1 '
b1 "
0!
#2770
b10 ,
b10 /
b1 -
b1 0
b1 1
b1001 )
b1001 5
b1001 6
1!
#2780
b0 ,
b0 /
b11111111 .
b11111111 +
b11111111 '
b11 "
0!
#2790
b11111111 ,
b11111111 /
b1010 )
b1010 5
b1010 6
b0 -
b0 0
b0 1
1!
#2800
b1 ,
b1 /
b1 .
b1 +
b1 '
b1 "
0!
#2810
b10 ,
b10 /
b1 -
b1 0
b1 1
b1011 )
b1011 5
b1011 6
1!
#2820
b0 ,
b0 /
b11111111 .
b11111111 +
b11111111 '
b11 "
0!
#2830
b11111111 ,
b11111111 /
b1100 )
b1100 5
b1100 6
b0 -
b0 0
b0 1
1!
#2840
b1 ,
b1 /
b1 .
b1 +
b1 '
b1 "
0!
#2850
b10 ,
b10 /
b1 -
b1 0
b1 1
b1101 )
b1101 5
b1101 6
1!
#2860
b0 ,
b0 /
b11111111 .
b11111111 +
b11111111 '
b11 "
0!
#2870
b11111111 ,
b11111111 /
b1110 )
b1110 5
b1110 6
b0 -
b0 0
b0 1
1!
#2880
b1 ,
b1 /
b1 .
b1 +
b1 '
b1 "
0!
#2890
b10 ,
b10 /
b1 -
b1 0
b1 1
b1111 )
b1111 5
b1111 6
1!
#2900
b0 ,
b0 /
b11111111 .
b11111111 +
b11111111 '
b11 "
0!
#2910
b11111111 ,
b11111111 /
b10000 )
b10000 5
b10000 6
b0 -
b0 0
b0 1
1!
#2920
b1 ,
b1 /
b1 .
b1 +
b1 '
b1 "
0!
#2930
b10 ,
b10 /
b1 -
b1 0
b1 1
b10001 )
b10001 5
b10001 6
1!
#2940
b0 ,
b0 /
b11111111 .
b11111111 +
b11111111 '
b11 "
0!
#2950
b11111111 ,
b11111111 /
b10010 )
b10010 5
b10010 6
b0 -
b0 0
b0 1
1!
#2960
b1 ,
b1 /
b1 .
b1 +
b1 '
b1 "
0!
#2970
b10 ,
b10 /
b1 -
b1 0
b1 1
b10011 )
b10011 5
b10011 6
1!
#2980
b0 ,
b0 /
b11111111 .
b11111111 +
b11111111 '
b11 "
0!
#2990
b11111111 ,
b11111111 /
b10100 )
b10100 5
b10100 6
b0 -
b0 0
b0 1
1!
#3000
b1 ,
b1 /
b1 .
b1 +
b1 '
b1 "
0!
#3010
b10 ,
b10 /
b1 -
b1 0
b1 1
b10101 )
b10101 5
b10101 6
1!
#3020
b0 ,
b0 /
b11111111 .
b11111111 +
b11111111 '
b11 "
0!
