Firmware/cic/out2.vcd
$date
	Tue May 25 14:20:51 2021
$end
$version
	Icarus Verilog
$end
$timescale
	1ns
$end
$scope module cic_tb $end
$scope module DUT $end
$var wire 1 ! i_clk $end
$var wire 1 " i_data $end
$var wire 1 # i_en $end
$var wire 1 $ i_rst $end
$var wire 1 % o_clk $end
$var wire 55 & o_data [54:0] $end
$var wire 55 ' i_data_ext [54:0] $end
$var wire 1 ( dec_clk $end
$var wire 18 ) dec [17:0] $end
$var reg 56 * test [55:0] $end
$scope begin genblk1[0] $end
$scope module int $end
$var wire 1 ! i_clk $end
$var wire 1 # i_en $end
$var wire 1 $ i_rst $end
$var wire 55 + i_x [54:0] $end
$var wire 55 , x_int [54:0] $end
$var wire 55 - o_y [54:0] $end
$var wire 55 . i_x_ext [54:0] $end
$scope module zinv $end
$var wire 1 ! i_clk $end
$var wire 55 / i_d [54:0] $end
$var wire 1 $ i_rst $end
$var wire 55 0 o_q [54:0] $end
$var reg 55 1 q [54:0] $end
$upscope $end
$upscope $end
$upscope $end
$scope begin genblk1[1] $end
$scope module int $end
$var wire 1 ! i_clk $end
$var wire 1 # i_en $end
$var wire 1 $ i_rst $end
$var wire 55 2 i_x [54:0] $end
$var wire 55 3 x_int [54:0] $end
$var wire 55 4 o_y [54:0] $end
$var wire 55 5 i_x_ext [54:0] $end
$scope module zinv $end
$var wire 1 ! i_clk $end
$var wire 55 6 i_d [54:0] $end
$var wire 1 $ i_rst $end
$var wire 55 7 o_q [54:0] $end
$var reg 55 8 q [54:0] $end
$upscope $end
$upscope $end
$upscope $end
$scope begin genblk1[2] $end
$scope module int $end
$var wire 1 ! i_clk $end
$var wire 1 # i_en $end
$var wire 1 $ i_rst $end
$var wire 55 9 i_x [54:0] $end
$var wire 55 : x_int [54:0] $end
$var wire 55 ; o_y [54:0] $end
$var wire 55 < i_x_ext [54:0] $end
$scope module zinv $end
$var wire 1 ! i_clk $end
$var wire 55 = i_d [54:0] $end
$var wire 1 $ i_rst $end
$var wire 55 > o_q [54:0] $end
$var reg 55 ? q [54:0] $end
$upscope $end
$upscope $end
$upscope $end
$scope begin genblk3 $end
$scope module dec_cnt $end
$var wire 1 ! i_clk $end
$var wire 18 @ i_data [17:0] $end
$var wire 1 # i_en $end
$var wire 1 A i_ld $end
$var wire 1 $ i_rst $end
$var wire 1 B i_up $end
$var wire 18 C o_data [17:0] $end
$var reg 18 D next [17:0] $end
$upscope $end
$upscope $end
$scope begin genblk4[0] $end
$scope module comb $end
$var wire 1 ( i_clk $end
$var wire 55 E i_data [54:0] $end
$var wire 1 # i_en $end
$var wire 1 $ i_rst $end
$var reg 55 F delay [54:0] $end
$var reg 55 G o_data [54:0] $end
$upscope $end
$upscope $end
$scope begin genblk4[1] $end
$scope module comb $end
$var wire 1 ( i_clk $end
$var wire 55 H i_data [54:0] $end
$var wire 1 # i_en $end
$var wire 1 $ i_rst $end
$var reg 55 I delay [54:0] $end
$var reg 55 J o_data [54:0] $end
$upscope $end
$upscope $end
$scope begin genblk4[2] $end
$scope module comb $end
$var wire 1 ( i_clk $end
$var wire 55 K i_data [54:0] $end
$var wire 1 # i_en $end
$var wire 1 $ i_rst $end
$var reg 55 L delay [54:0] $end
$var reg 55 M o_data [54:0] $end
$upscope $end
$upscope $end
$upscope $end
$upscope $end
$enddefinitions $end
#0
$dumpvars
bx M
b0 L
bx K
bx J
b0 I
bx H
bx G
b0 F
bx E
b0 D
b0 C
1B
0A
bz @
b0 ?
b0 >
b0 =
b0 <
b0 ;
b0 :
b0 9
b0 8
b0 7
b0 6
b0 5
b0 4
b0 3
b0 2
b0 1
b0 0
b0 /
b0 .
b0 -
b0 ,
b0 +
bx *
b0 )
0(
b0 '
bx &
0%
1$
1#
0"
0!
$end
#10
1!
#20
b1111111111111111111111111111111111111111111111111111111 ,
b1111111111111111111111111111111111111111111111111111111 /
0!
b1111111111111111111111111111111111111111111111111111111 .
b1111111111111111111111111111111111111111111111111111111 +
b1111111111111111111111111111111111111111111111111111111 '
1"
#30
1!
#40
b0 ,
b0 /
0!
b0 .
b0 +
b0 '
0"
#50
1!
#60
b1111111111111111111111111111111111111111111111111111111 ,
b1111111111111111111111111111111111111111111111111111111 /
0!
b1111111111111111111111111111111111111111111111111111111 .
b1111111111111111111111111111111111111111111111111111111 +
b1111111111111111111111111111111111111111111111111111111 '
1"
#70
1!
#80
b0 ,
b0 /
0!
b0 .
b0 +
b0 '
0"
#90
1!
#100
b1111111111111111111111111111111111111111111111111111111 ,
b1111111111111111111111111111111111111111111111111111111 /
0!
b1111111111111111111111111111111111111111111111111111111 .
b1111111111111111111111111111111111111111111111111111111 +
b1111111111111111111111111111111111111111111111111111111 '
1"
#110
1!
#120
b0 ,
b0 /
0!
b0 .
b0 +
b0 '
0"
#130
1!
#140
b1111111111111111111111111111111111111111111111111111111 ,
b1111111111111111111111111111111111111111111111111111111 /
0!
b1111111111111111111111111111111111111111111111111111111 .
b1111111111111111111111111111111111111111111111111111111 +
b1111111111111111111111111111111111111111111111111111111 '
1"
#150
1!
#160
b0 ,
b0 /
0!
b0 .
b0 +
b0 '
0"
#170
1!
#180
b1111111111111111111111111111111111111111111111111111111 ,
b1111111111111111111111111111111111111111111111111111111 /
0!
b1111111111111111111111111111111111111111111111111111111 .
b1111111111111111111111111111111111111111111111111111111 +
b1111111111111111111111111111111111111111111111111111111 '
1"
#190
1!
#200
b0 ,
b0 /
0!
b0 .
b0 +
b0 '
0"
#210
1!
#220
b1111111111111111111111111111111111111111111111111111111 ,
b1111111111111111111111111111111111111111111111111111111 /
0!
b1111111111111111111111111111111111111111111111111111111 .
b1111111111111111111111111111111111111111111111111111111 +
b1111111111111111111111111111111111111111111111111111111 '
1"
#230
1!
#240
b0 ,
b0 /
0!
b0 .
b0 +
b0 '
0"
#250
1!
#260
b1111111111111111111111111111111111111111111111111111111 ,
b1111111111111111111111111111111111111111111111111111111 /
0!
b1111111111111111111111111111111111111111111111111111111 .
b1111111111111111111111111111111111111111111111111111111 +
b1111111111111111111111111111111111111111111111111111111 '
1"
#270
1!
#280
b0 ,
b0 /
0!
b0 .
b0 +
b0 '
0"
#290
1!
#300
b1111111111111111111111111111111111111111111111111111111 ,
b1111111111111111111111111111111111111111111111111111111 /
0!
b1111111111111111111111111111111111111111111111111111111 .
b1111111111111111111111111111111111111111111111111111111 +
b1111111111111111111111111111111111111111111111111111111 '
1"
#310
1!
#320
b0 ,
b0 /
0!
b0 .
b0 +
b0 '
0"
#330
1!
#340
b1111111111111111111111111111111111111111111111111111111 ,
b1111111111111111111111111111111111111111111111111111111 /
0!
b1111111111111111111111111111111111111111111111111111111 .
b1111111111111111111111111111111111111111111111111111111 +
b1111111111111111111111111111111111111111111111111111111 '
1"
#350
1!
#360
b0 ,
b0 /
0!
b0 .
b0 +
b0 '
0"
#370
1!
#380
b1111111111111111111111111111111111111111111111111111111 ,
b1111111111111111111111111111111111111111111111111111111 /
0!
b1111111111111111111111111111111111111111111111111111111 .
b1111111111111111111111111111111111111111111111111111111 +
b1111111111111111111111111111111111111111111111111111111 '
1"
#390
1!
#400
b0 ,
b0 /
0!
b0 .
b0 +
b0 '
0"
#410
1!
#420
b1111111111111111111111111111111111111111111111111111111 ,
b1111111111111111111111111111111111111111111111111111111 /
0!
b1111111111111111111111111111111111111111111111111111111 .
b1111111111111111111111111111111111111111111111111111111 +
b1111111111111111111111111111111111111111111111111111111 '
1"
#430
1!
#440
b0 ,
b0 /
0!
b0 .
b0 +
b0 '
0"
#450
1!
#460
b1111111111111111111111111111111111111111111111111111111 ,
b1111111111111111111111111111111111111111111111111111111 /
0!
b1111111111111111111111111111111111111111111111111111111 .
b1111111111111111111111111111111111111111111111111111111 +
b1111111111111111111111111111111111111111111111111111111 '
1"
#470
1!
#480
b0 ,
b0 /
0!
b0 .
b0 +
b0 '
0"
#490
1!
#500
b1111111111111111111111111111111111111111111111111111111 ,
b1111111111111111111111111111111111111111111111111111111 /
0!
b1111111111111111111111111111111111111111111111111111111 .
b1111111111111111111111111111111111111111111111111111111 +
b1111111111111111111111111111111111111111111111111111111 '
1"
#510
1!
#520
b0 ,
b0 /
0!
b0 .
b0 +
b0 '
0"
#530
1!
#540
b1111111111111111111111111111111111111111111111111111111 ,
b1111111111111111111111111111111111111111111111111111111 /
0!
b1111111111111111111111111111111111111111111111111111111 .
b1111111111111111111111111111111111111111111111111111111 +
b1111111111111111111111111111111111111111111111111111111 '
1"
#550
1!
#560
b0 ,
b0 /
0!
b0 .
b0 +
b0 '
0"
#570
1!
#580
b1111111111111111111111111111111111111111111111111111111 ,
b1111111111111111111111111111111111111111111111111111111 /
0!
b1111111111111111111111111111111111111111111111111111111 .
b1111111111111111111111111111111111111111111111111111111 +
b1111111111111111111111111111111111111111111111111111111 '
1"
#590
1!
#600
b0 ,
b0 /
0!
b0 .
b0 +
b0 '
0"
#610
1!
#620
b1111111111111111111111111111111111111111111111111111111 ,
b1111111111111111111111111111111111111111111111111111111 /
0!
b1111111111111111111111111111111111111111111111111111111 .
b1111111111111111111111111111111111111111111111111111111 +
b1111111111111111111111111111111111111111111111111111111 '
1"
#630
1!
#640
b0 ,
b0 /
0!
b0 .
b0 +
b0 '
0"
#650
1!
#660
b1111111111111111111111111111111111111111111111111111111 ,
b1111111111111111111111111111111111111111111111111111111 /
0!
b1111111111111111111111111111111111111111111111111111111 .
b1111111111111111111111111111111111111111111111111111111 +
b1111111111111111111111111111111111111111111111111111111 '
1"
#670
1!
#680
b0 ,
b0 /
0!
b0 .
b0 +
b0 '
0"
#690
1!
#700
b1111111111111111111111111111111111111111111111111111111 ,
b1111111111111111111111111111111111111111111111111111111 /
0!
b1111111111111111111111111111111111111111111111111111111 .
b1111111111111111111111111111111111111111111111111111111 +
b1111111111111111111111111111111111111111111111111111111 '
1"
#710
1!
#720
b0 ,
b0 /
0!
b0 .
b0 +
b0 '
0"
#730
1!
#740
b1111111111111111111111111111111111111111111111111111111 ,
b1111111111111111111111111111111111111111111111111111111 /
0!
b1111111111111111111111111111111111111111111111111111111 .
b1111111111111111111111111111111111111111111111111111111 +
b1111111111111111111111111111111111111111111111111111111 '
1"
#750
1!
#760
b0 ,
b0 /
0!
b0 .
b0 +
b0 '
0"
#770
1!
#780
b1111111111111111111111111111111111111111111111111111111 ,
b1111111111111111111111111111111111111111111111111111111 /
0!
b1111111111111111111111111111111111111111111111111111111 .
b1111111111111111111111111111111111111111111111111111111 +
b1111111111111111111111111111111111111111111111111111111 '
1"
#790
1!
#800
b0 ,
b0 /
0!
b0 .
b0 +
b0 '
0"
#810
1!
#820
b1111111111111111111111111111111111111111111111111111111 ,
b1111111111111111111111111111111111111111111111111111111 /
0!
b1111111111111111111111111111111111111111111111111111111 .
b1111111111111111111111111111111111111111111111111111111 +
b1111111111111111111111111111111111111111111111111111111 '
1"
#830
1!
#840
b0 ,
b0 /
0!
b0 .
b0 +
b0 '
0"
#850
1!
#860
b1111111111111111111111111111111111111111111111111111111 ,
b1111111111111111111111111111111111111111111111111111111 /
0!
b1111111111111111111111111111111111111111111111111111111 .
b1111111111111111111111111111111111111111111111111111111 +
b1111111111111111111111111111111111111111111111111111111 '
1"
#870
1!
#880
b0 ,
b0 /
0!
b0 .
b0 +
b0 '
0"
#890
1!
#900
b1111111111111111111111111111111111111111111111111111111 ,
b1111111111111111111111111111111111111111111111111111111 /
0!
b1111111111111111111111111111111111111111111111111111111 .
b1111111111111111111111111111111111111111111111111111111 +
b1111111111111111111111111111111111111111111111111111111 '
1"
#910
1!
#920
b0 ,
b0 /
0!
b0 .
b0 +
b0 '
0"
#930
1!
#940
b1111111111111111111111111111111111111111111111111111111 ,
b1111111111111111111111111111111111111111111111111111111 /
0!
b1111111111111111111111111111111111111111111111111111111 .
b1111111111111111111111111111111111111111111111111111111 +
b1111111111111111111111111111111111111111111111111111111 '
1"
#950
1!
#960
b0 ,
b0 /
0!
b0 .
b0 +
b0 '
0"
#970
1!
#980
b1111111111111111111111111111111111111111111111111111111 ,
b1111111111111111111111111111111111111111111111111111111 /
0!
b1111111111111111111111111111111111111111111111111111111 .
b1111111111111111111111111111111111111111111111111111111 +
b1111111111111111111111111111111111111111111111111111111 '
1"
#990
1!
#1000
b0 ,
b0 /
0!
b0 .
b0 +
b0 '
0"
#1010
1!
#1020
b1111111111111111111111111111111111111111111111111111111 ,
b1111111111111111111111111111111111111111111111111111111 /
0!
b1111111111111111111111111111111111111111111111111111111 .
b1111111111111111111111111111111111111111111111111111111 +
b1111111111111111111111111111111111111111111111111111111 '
1"
#1030
1!
#1040
b0 ,
b0 /
0!
b0 .
b0 +
b0 '
0"
#1050
1!
#1060
b1111111111111111111111111111111111111111111111111111111 ,
b1111111111111111111111111111111111111111111111111111111 /
0!
b1111111111111111111111111111111111111111111111111111111 .
b1111111111111111111111111111111111111111111111111111111 +
b1111111111111111111111111111111111111111111111111111111 '
1"
#1070
1!
#1080
b0 ,
b0 /
0!
b0 .
b0 +
b0 '
0"
#1090
1!
#1100
b1111111111111111111111111111111111111111111111111111111 ,
b1111111111111111111111111111111111111111111111111111111 /
0!
b1111111111111111111111111111111111111111111111111111111 .
b1111111111111111111111111111111111111111111111111111111 +
b1111111111111111111111111111111111111111111111111111111 '
1"
#1110
1!
#1120
b0 ,
b0 /
0!
b0 .
b0 +
b0 '
0"
#1130
1!
#1140
b1111111111111111111111111111111111111111111111111111111 ,
b1111111111111111111111111111111111111111111111111111111 /
0!
b1111111111111111111111111111111111111111111111111111111 .
b1111111111111111111111111111111111111111111111111111111 +
b1111111111111111111111111111111111111111111111111111111 '
1"
#1150
1!
#1160
b0 ,
b0 /
0!
b0 .
b0 +
b0 '
0"
#1170
1!
#1180
b1111111111111111111111111111111111111111111111111111111 ,
b1111111111111111111111111111111111111111111111111111111 /
0!
b1111111111111111111111111111111111111111111111111111111 .
b1111111111111111111111111111111111111111111111111111111 +
b1111111111111111111111111111111111111111111111111111111 '
1"
#1190
1!
#1200
b0 ,
b0 /
0!
b0 .
b0 +
b0 '
0"
#1210
1!
#1220
b1111111111111111111111111111111111111111111111111111111 ,
b1111111111111111111111111111111111111111111111111111111 /
0!
b1111111111111111111111111111111111111111111111111111111 .
b1111111111111111111111111111111111111111111111111111111 +
b1111111111111111111111111111111111111111111111111111111 '
1"
#1230
1!
#1240
b0 ,
b0 /
0!
b0 .
b0 +
b0 '
0"
#1250
1!
#1260
b1111111111111111111111111111111111111111111111111111111 ,
b1111111111111111111111111111111111111111111111111111111 /
0!
b1111111111111111111111111111111111111111111111111111111 .
b1111111111111111111111111111111111111111111111111111111 +
b1111111111111111111111111111111111111111111111111111111 '
1"
#1270
1!
#1280
b0 ,
b0 /
0!
b0 .
b0 +
b0 '
0"
#1290
1!
#1300
b1111111111111111111111111111111111111111111111111111111 ,
b1111111111111111111111111111111111111111111111111111111 /
0!
b1111111111111111111111111111111111111111111111111111111 .
b1111111111111111111111111111111111111111111111111111111 +
b1111111111111111111111111111111111111111111111111111111 '
1"
#1310
1!
#1320
b0 ,
b0 /
0!
b0 .
b0 +
b0 '
0"
#1330
1!
#1340
b1111111111111111111111111111111111111111111111111111111 ,
b1111111111111111111111111111111111111111111111111111111 /
0!
b1111111111111111111111111111111111111111111111111111111 .
b1111111111111111111111111111111111111111111111111111111 +
b1111111111111111111111111111111111111111111111111111111 '
1"
#1350
1!
#1360
b0 ,
b0 /
0!
b0 .
b0 +
b0 '
0"
#1370
1!
#1380
b1111111111111111111111111111111111111111111111111111111 ,
b1111111111111111111111111111111111111111111111111111111 /
0!
b1111111111111111111111111111111111111111111111111111111 .
b1111111111111111111111111111111111111111111111111111111 +
b1111111111111111111111111111111111111111111111111111111 '
1"
#1390
1!
#1400
b0 ,
b0 /
0!
b0 .
b0 +
b0 '
0"
#1410
1!
#1420
b1111111111111111111111111111111111111111111111111111111 ,
b1111111111111111111111111111111111111111111111111111111 /
0!
b1111111111111111111111111111111111111111111111111111111 .
b1111111111111111111111111111111111111111111111111111111 +
b1111111111111111111111111111111111111111111111111111111 '
1"
#1430
1!
#1440
b0 ,
b0 /
0!
b0 .
b0 +
b0 '
0"
#1450
1!
#1460
b1111111111111111111111111111111111111111111111111111111 ,
b1111111111111111111111111111111111111111111111111111111 /
0!
b1111111111111111111111111111111111111111111111111111111 .
b1111111111111111111111111111111111111111111111111111111 +
b1111111111111111111111111111111111111111111111111111111 '
1"
#1470
1!
#1480
b0 ,
b0 /
0!
b0 .
b0 +
b0 '
0"
#1490
1!
#1500
b1111111111111111111111111111111111111111111111111111111 ,
b1111111111111111111111111111111111111111111111111111111 /
0!
b1111111111111111111111111111111111111111111111111111111 .
b1111111111111111111111111111111111111111111111111111111 +
b1111111111111111111111111111111111111111111111111111111 '
1"
#1510
1!
#1520
b0 ,
b0 /
0!
b0 .
b0 +
b0 '
0"
#1530
1!
#1540
b1111111111111111111111111111111111111111111111111111111 ,
b1111111111111111111111111111111111111111111111111111111 /
0!
b1111111111111111111111111111111111111111111111111111111 .
b1111111111111111111111111111111111111111111111111111111 +
b1111111111111111111111111111111111111111111111111111111 '
1"
#1550
1!
#1560
b0 ,
b0 /
0!
b0 .
b0 +
b0 '
0"
#1570
1!
#1580
b1111111111111111111111111111111111111111111111111111111 ,
b1111111111111111111111111111111111111111111111111111111 /
0!
b1111111111111111111111111111111111111111111111111111111 .
b1111111111111111111111111111111111111111111111111111111 +
b1111111111111111111111111111111111111111111111111111111 '
1"
#1590
1!
#1600
b0 ,
b0 /
0!
b0 .
b0 +
b0 '
0"
#1610
1!
#1620
b1111111111111111111111111111111111111111111111111111111 ,
b1111111111111111111111111111111111111111111111111111111 /
0!
b1111111111111111111111111111111111111111111111111111111 .
b1111111111111111111111111111111111111111111111111111111 +
b1111111111111111111111111111111111111111111111111111111 '
1"
#1630
1!
#1640
b0 ,
b0 /
0!
b0 .
b0 +
b0 '
0"
#1650
1!
#1660
b1111111111111111111111111111111111111111111111111111111 ,
b1111111111111111111111111111111111111111111111111111111 /
0!
b1111111111111111111111111111111111111111111111111111111 .
b1111111111111111111111111111111111111111111111111111111 +
b1111111111111111111111111111111111111111111111111111111 '
1"
#1670
1!
#1680
b0 ,
b0 /
0!
b0 .
b0 +
b0 '
0"
#1690
1!
#1700
b1111111111111111111111111111111111111111111111111111111 ,
b1111111111111111111111111111111111111111111111111111111 /
0!
b1111111111111111111111111111111111111111111111111111111 .
b1111111111111111111111111111111111111111111111111111111 +
b1111111111111111111111111111111111111111111111111111111 '
1"
#1710
1!
#1720
b0 ,
b0 /
0!
b0 .
b0 +
b0 '
0"
#1730
1!
#1740
b1111111111111111111111111111111111111111111111111111111 ,
b1111111111111111111111111111111111111111111111111111111 /
0!
b1111111111111111111111111111111111111111111111111111111 .
b1111111111111111111111111111111111111111111111111111111 +
b1111111111111111111111111111111111111111111111111111111 '
1"
#1750
1!
#1760
b0 ,
b0 /
0!
b0 .
b0 +
b0 '
0"
#1770
1!
#1780
b1111111111111111111111111111111111111111111111111111111 ,
b1111111111111111111111111111111111111111111111111111111 /
0!
b1111111111111111111111111111111111111111111111111111111 .
b1111111111111111111111111111111111111111111111111111111 +
b1111111111111111111111111111111111111111111111111111111 '
1"
#1790
1!
#1800
b0 ,
b0 /
0!
b0 .
b0 +
b0 '
0"
#1810
1!
#1820
b1111111111111111111111111111111111111111111111111111111 ,
b1111111111111111111111111111111111111111111111111111111 /
0!
b1111111111111111111111111111111111111111111111111111111 .
b1111111111111111111111111111111111111111111111111111111 +
b1111111111111111111111111111111111111111111111111111111 '
1"
#1830
1!
#1840
b0 ,
b0 /
0!
b0 .
b0 +
b0 '
0"
#1850
1!
#1860
b1111111111111111111111111111111111111111111111111111111 ,
b1111111111111111111111111111111111111111111111111111111 /
0!
b1111111111111111111111111111111111111111111111111111111 .
b1111111111111111111111111111111111111111111111111111111 +
b1111111111111111111111111111111111111111111111111111111 '
1"
#1870
1!
#1880
b0 ,
b0 /
0!
b0 .
b0 +
b0 '
0"
#1890
1!
#1900
b1111111111111111111111111111111111111111111111111111111 ,
b1111111111111111111111111111111111111111111111111111111 /
0!
b1111111111111111111111111111111111111111111111111111111 .
b1111111111111111111111111111111111111111111111111111111 +
b1111111111111111111111111111111111111111111111111111111 '
1"
#1910
1!
#1920
b0 ,
b0 /
0!
b0 .
b0 +
b0 '
0"
#1930
1!
#1940
b1111111111111111111111111111111111111111111111111111111 ,
b1111111111111111111111111111111111111111111111111111111 /
0!
b1111111111111111111111111111111111111111111111111111111 .
b1111111111111111111111111111111111111111111111111111111 +
b1111111111111111111111111111111111111111111111111111111 '
1"
#1950
1!
#1960
b0 ,
b0 /
0!
b0 .
b0 +
b0 '
0"
#1970
1!
#1980
b1111111111111111111111111111111111111111111111111111111 ,
b1111111111111111111111111111111111111111111111111111111 /
0!
b1111111111111111111111111111111111111111111111111111111 .
b1111111111111111111111111111111111111111111111111111111 +
b1111111111111111111111111111111111111111111111111111111 '
1"
#1990
1!
#2000
b0 ,
b0 /
0!
b0 .
b0 +
b0 '
0"
#2010
1!
#2020
b1111111111111111111111111111111111111111111111111111111 ,
b1111111111111111111111111111111111111111111111111111111 /
0!
b1111111111111111111111111111111111111111111111111111111 .
b1111111111111111111111111111111111111111111111111111111 +
b1111111111111111111111111111111111111111111111111111111 '
1"
#2030
1!
#2040
b0 ,
b0 /
0!
b0 .
b0 +
b0 '
0"
#2050
1!
#2060
b1111111111111111111111111111111111111111111111111111111 ,
b1111111111111111111111111111111111111111111111111111111 /
0!
b1111111111111111111111111111111111111111111111111111111 .
b1111111111111111111111111111111111111111111111111111111 +
b1111111111111111111111111111111111111111111111111111111 '
1"
#2070
1!
#2080
b0 ,
b0 /
0!
b0 .
b0 +
b0 '
0"
#2090
1!
#2100
b1111111111111111111111111111111111111111111111111111111 ,
b1111111111111111111111111111111111111111111111111111111 /
0!
b1111111111111111111111111111111111111111111111111111111 .
b1111111111111111111111111111111111111111111111111111111 +
b1111111111111111111111111111111111111111111111111111111 '
1"
#2110
1!
#2120
b0 ,
b0 /
0!
b0 .
b0 +
b0 '
0"
#2130
1!
#2140
b1111111111111111111111111111111111111111111111111111111 ,
b1111111111111111111111111111111111111111111111111111111 /
0!
b1111111111111111111111111111111111111111111111111111111 .
b1111111111111111111111111111111111111111111111111111111 +
b1111111111111111111111111111111111111111111111111111111 '
1"
#2150
1!
#2160
b0 ,
b0 /
0!
b0 .
b0 +
b0 '
0"
#2170
1!
#2180
b1111111111111111111111111111111111111111111111111111111 ,
b1111111111111111111111111111111111111111111111111111111 /
0!
b1111111111111111111111111111111111111111111111111111111 .
b1111111111111111111111111111111111111111111111111111111 +
b1111111111111111111111111111111111111111111111111111111 '
1"
#2190
1!
#2200
b0 ,
b0 /
0!
b0 .
b0 +
b0 '
0"
#2210
1!
#2220
b1111111111111111111111111111111111111111111111111111111 ,
b1111111111111111111111111111111111111111111111111111111 /
0!
b1111111111111111111111111111111111111111111111111111111 .
b1111111111111111111111111111111111111111111111111111111 +
b1111111111111111111111111111111111111111111111111111111 '
1"
#2230
1!
#2240
b0 ,
b0 /
0!
b0 .
b0 +
b0 '
0"
#2250
1!
#2260
b1111111111111111111111111111111111111111111111111111111 ,
b1111111111111111111111111111111111111111111111111111111 /
0!
b1111111111111111111111111111111111111111111111111111111 .
b1111111111111111111111111111111111111111111111111111111 +
b1111111111111111111111111111111111111111111111111111111 '
1"
#2270
1!
#2280
b0 ,
b0 /
0!
b0 .
b0 +
b0 '
0"
#2290
1!
#2300
b1111111111111111111111111111111111111111111111111111111 ,
b1111111111111111111111111111111111111111111111111111111 /
0!
b1111111111111111111111111111111111111111111111111111111 .
b1111111111111111111111111111111111111111111111111111111 +
b1111111111111111111111111111111111111111111111111111111 '
1"
#2310
1!
#2320
b0 ,
b0 /
0!
b0 .
b0 +
b0 '
0"
#2330
1!
#2340
b1111111111111111111111111111111111111111111111111111111 ,
b1111111111111111111111111111111111111111111111111111111 /
0!
b1111111111111111111111111111111111111111111111111111111 .
b1111111111111111111111111111111111111111111111111111111 +
b1111111111111111111111111111111111111111111111111111111 '
1"
#2350
1!
#2360
b0 ,
b0 /
0!
b0 .
b0 +
b0 '
0"
#2370
1!
#2380
b1111111111111111111111111111111111111111111111111111111 ,
b1111111111111111111111111111111111111111111111111111111 /
0!
b1111111111111111111111111111111111111111111111111111111 .
b1111111111111111111111111111111111111111111111111111111 +
b1111111111111111111111111111111111111111111111111111111 '
1"
#2390
1!
#2400
b0 ,
b0 /
0!
b0 .
b0 +
b0 '
0"
#2410
1!
#2420
b1111111111111111111111111111111111111111111111111111111 ,
b1111111111111111111111111111111111111111111111111111111 /
0!
b1111111111111111111111111111111111111111111111111111111 .
b1111111111111111111111111111111111111111111111111111111 +
b1111111111111111111111111111111111111111111111111111111 '
1"
#2430
1!
#2440
b0 ,
b0 /
0!
b0 .
b0 +
b0 '
0"
#2450
1!
#2460
b1111111111111111111111111111111111111111111111111111111 ,
b1111111111111111111111111111111111111111111111111111111 /
0!
b1111111111111111111111111111111111111111111111111111111 .
b1111111111111111111111111111111111111111111111111111111 +
b1111111111111111111111111111111111111111111111111111111 '
1"
#2470
1!
#2480
b0 ,
b0 /
0!
b0 .
b0 +
b0 '
0"
#2490
1!
#2500
b1111111111111111111111111111111111111111111111111111111 ,
b1111111111111111111111111111111111111111111111111111111 /
0!
b1111111111111111111111111111111111111111111111111111111 .
b1111111111111111111111111111111111111111111111111111111 +
b1111111111111111111111111111111111111111111111111111111 '
1"
#2510
1!
#2520
b0 ,
b0 /
0!
b0 .
b0 +
b0 '
0"
#2530
1!
#2540
b1111111111111111111111111111111111111111111111111111111 ,
b1111111111111111111111111111111111111111111111111111111 /
0!
b1111111111111111111111111111111111111111111111111111111 .
b1111111111111111111111111111111111111111111111111111111 +
b1111111111111111111111111111111111111111111111111111111 '
1"
#2550
1!
#2560
b0 ,
b0 /
0!
b0 .
b0 +
b0 '
0"
#2570
1!
#2580
b1111111111111111111111111111111111111111111111111111111 ,
b1111111111111111111111111111111111111111111111111111111 /
0!
b1111111111111111111111111111111111111111111111111111111 .
b1111111111111111111111111111111111111111111111111111111 +
b1111111111111111111111111111111111111111111111111111111 '
1"
#2590
1!
#2600
b0 ,
b0 /
0!
b0 .
b0 +
b0 '
0"
#2610
1!
#2620
b1111111111111111111111111111111111111111111111111111111 ,
b1111111111111111111111111111111111111111111111111111111 /
0!
b1111111111111111111111111111111111111111111111111111111 .
b1111111111111111111111111111111111111111111111111111111 +
b1111111111111111111111111111111111111111111111111111111 '
1"
#2630
1!
#2640
b0 ,
b0 /
0!
b0 .
b0 +
b0 '
0"
#2650
1!
#2660
b1111111111111111111111111111111111111111111111111111111 ,
b1111111111111111111111111111111111111111111111111111111 /
0!
b1111111111111111111111111111111111111111111111111111111 .
b1111111111111111111111111111111111111111111111111111111 +
b1111111111111111111111111111111111111111111111111111111 '
1"
#2670
1!
#2680
b0 ,
b0 /
0!
b0 .
b0 +
b0 '
0"
#2690
1!
#2700
b1111111111111111111111111111111111111111111111111111111 ,
b1111111111111111111111111111111111111111111111111111111 /
0!
b1111111111111111111111111111111111111111111111111111111 .
b1111111111111111111111111111111111111111111111111111111 +
b1111111111111111111111111111111111111111111111111111111 '
1"
#2710
1!
#2720
b0 ,
b0 /
0!
b0 .
b0 +
b0 '
0"
#2730
1!
#2740
b1111111111111111111111111111111111111111111111111111111 ,
b1111111111111111111111111111111111111111111111111111111 /
0!
b1111111111111111111111111111111111111111111111111111111 .
b1111111111111111111111111111111111111111111111111111111 +
b1111111111111111111111111111111111111111111111111111111 '
1"
#2750
1!
#2760
b0 ,
b0 /
0!
b0 .
b0 +
b0 '
0"
#2770
1!
#2780
b1111111111111111111111111111111111111111111111111111111 ,
b1111111111111111111111111111111111111111111111111111111 /
0!
b1111111111111111111111111111111111111111111111111111111 .
b1111111111111111111111111111111111111111111111111111111 +
b1111111111111111111111111111111111111111111111111111111 '
1"
#2790
1!
#2800
b0 ,
b0 /
0!
b0 .
b0 +
b0 '
0"
#2810
1!
#2820
b1111111111111111111111111111111111111111111111111111111 ,
b1111111111111111111111111111111111111111111111111111111 /
0!
b1111111111111111111111111111111111111111111111111111111 .
b1111111111111111111111111111111111111111111111111111111 +
b1111111111111111111111111111111111111111111111111111111 '
1"
#2830
1!
#2840
b0 ,
b0 /
0!
b0 .
b0 +
b0 '
0"
#2850
1!
#2860
b1111111111111111111111111111111111111111111111111111111 ,
b1111111111111111111111111111111111111111111111111111111 /
0!
b1111111111111111111111111111111111111111111111111111111 .
b1111111111111111111111111111111111111111111111111111111 +
b1111111111111111111111111111111111111111111111111111111 '
1"
#2870
1!
#2880
b0 ,
b0 /
0!
b0 .
b0 +
b0 '
0"
#2890
1!
#2900
b1111111111111111111111111111111111111111111111111111111 ,
b1111111111111111111111111111111111111111111111111111111 /
0!
b1111111111111111111111111111111111111111111111111111111 .
b1111111111111111111111111111111111111111111111111111111 +
b1111111111111111111111111111111111111111111111111111111 '
1"
#2910
1!
#2920
b0 ,
b0 /
0!
b0 .
b0 +
b0 '
0"
#2930
1!
#2940
b1111111111111111111111111111111111111111111111111111111 ,
b1111111111111111111111111111111111111111111111111111111 /
0!
b1111111111111111111111111111111111111111111111111111111 .
b1111111111111111111111111111111111111111111111111111111 +
b1111111111111111111111111111111111111111111111111111111 '
1"
#2950
1!
#2960
b0 ,
b0 /
0!
b0 .
b0 +
b0 '
0"
#2970
1!
#2980
b1111111111111111111111111111111111111111111111111111111 ,
b1111111111111111111111111111111111111111111111111111111 /
0!
b1111111111111111111111111111111111111111111111111111111 .
b1111111111111111111111111111111111111111111111111111111 +
b1111111111111111111111111111111111111111111111111111111 '
1"
#2990
1!
